t-3	t-2	t-1	t0	t1	Naive Bayes	n
continuous	continuous	continuous	continuous	continuous	discrete	continuous
					class	meta
44710.6863619	44810.7102688	44910.7341756	44083.0056903	42012.7400651	2133	1.0
48139.1823148	48237.1804061	48335.1784974	46077.9507571	33477.8766165	2133	4.0
-233.213809886	-1520.53699863	-2807.86018737	-3359.42086756	-3169.53149285	-2106	7.0
-295.084467076	-307.324102619	-319.563738161	-319.162552711	-315.619964033	-2133	10.0
-234.140424446	-230.597835768	-227.05524709	-229.618324753	-270.459111096	-2133	11.0
4332.38076727	4419.0269911	4505.67321494	3907.9346305	3256.28685985	2133	13.0
-3260.19084666	-3911.83861731	-4563.48638796	-4813.68690315	-4693.95201471	-1040	14.0
15660.9790194	15780.7139079	15900.4487963	15643.1491332	14267.2352852	2133	15.0
-11875.1278268	-13251.0416748	-14626.9555229	-14976.0167429	-14661.6416535	-1040	16.0
-1237.24908155	-1159.21590289	-1081.18272423	-1015.97051961	-1083.98040531	-2133	20.0
23951.5447141	24045.1524706	24138.7602272	23796.4953091	23318.4032489	2133	23.0
-1301.53921477	-1384.70470772	-1467.87020066	-1512.09793464	-1433.63798139	-2133	30.0
10806.114725	10884.5746783	10963.0346315	10481.0141343	9721.76349043	2133	31.0
-10778.0038948	-11537.2545387	-12296.5051826	-12674.3961395	-12189.6496204	-1040	32.0
224.819501946	236.055667693	247.291833441	247.452800973	209.463174471	-2106	35.0
1493.70724359	1551.44289737	1609.17855115	1532.63891497	1441.04219117	-26	37.0
26286.7999411	26380.5071585	26474.214376	25623.6251207	23500.8027062	2133	39.0
-21078.4679977	-23201.2904122	-25324.1128267	-26348.5861455	-24710.3704314	-1040	40.0
3220.5671854	3242.93818828	3265.30919116	3266.60163827	3113.03447259	-26	43.0
-2415.38349184	-2568.95065752	-2722.5178232	-2654.12057235	-2560.83652992	-2106	44.0
51541.1255017	51596.006514	51650.8875263	51476.7200915	48895.4872858	2133	46.0
5627.4545026	5702.52771972	5777.60093684	5762.75156242	5564.22762807	2133	51.0
-2575.25368031	-2773.77761466	-2972.30154901	-3156.15595815	-3058.28207144	-2106	52.0
58798.0143309	58895.8882176	58993.7621043	58461.7350976	55951.2627257	2133	53.0
-2282.5506268	-2499.42750476	-2716.30438272	-2666.8395572	-2563.1317256	-2106	58.0
-12776.6649662	-13080.8863597	-13385.1077531	-13651.1710851	-13497.0865267	-1040	60.0
9106.87720497	9184.7173882	9262.55757143	9265.86826957	9175.05242183	2133	63.0
-4204.72814943	-6499.47615623	-8794.22416304	-10360.821575	-9478.74346434	-1040	65.0
8340.50713573	8387.68807989	8434.86902405	8088.62558835	7574.1680589	2133	69.0
-8374.01535395	-8888.47288339	-9402.93041284	-9445.78735757	-9198.223342	-1040	70.0
6924.86247439	6982.53906082	7040.21564725	6594.10914098	4823.44053229	2133	72.0
-5800.57111982	-7571.2397285	-9341.90833719	-10117.7278011	-9890.21785129	-1040	73.0
5807.96868873	6035.47863859	6262.98858844	3886.6859869	1299.95661808	2133	74.0
-1286.77275073	-3873.50211955	-6460.23148836	-6112.92871664	-5389.72495544	-1040	75.0
2815.65739142	2827.42097819	2839.18456497	2745.61817017	2579.05255167	-26	78.0
-2251.35038484	-2417.91600334	-2584.48162184	-2636.13949316	-2557.47312271	-2133	79.0
30574.4065913	30666.4795615	30758.5525316	30654.0048038	29979.8103822	2133	81.0
277.757382744	581.819212668	885.881042593	694.252927236	-0.211303217538	-2106	84.0
-694.675533672	-1389.13976413	-2083.60399458	-1875.90150494	-1608.06640497	-2133	85.0
34422.9639622	34518.6839867	34614.4040113	33511.0387317	29919.0469415	2133	87.0
-23960.8299118	-27552.8217021	-31144.8134923	-33526.4599876	-32630.9139399	-1040	88.0
-4003.31540264	-4165.03070114	-4326.74599964	-4387.73956395	-4238.97369086	-1040	92.0
881.281837091	893.430677605	905.579518119	840.338355396	712.750469914	-26	101.0
-3114.88609454	-3242.47398002	-3370.0618655	-3394.25743666	-3293.02201354	-1040	102.0
29613.1696208	29708.4218574	29803.6740941	29577.4933005	28614.2906857	2133	104.0
3844.13926183	4068.92589575	4293.71252968	4063.77871693	3474.09714527	-2106	107.0
-1833.03699968	-2422.71857135	-3012.40014301	-3115.85057536	-2959.02032034	-2133	108.0
-1204.79135981	-1278.01262227	-1351.23388473	-1375.02720881	-1336.73531042	-2133	111.0
629.975199007	569.968581815	509.961964622	477.190306386	533.546678458	-26	117.0
4365.7799794	4422.13635147	4478.49272355	4333.83230223	3934.29372446	2133	118.0
-5837.933598	-6300.03976204	-6762.14592608	-7047.7817808	-6770.23740742	-1040	121.0
47040.8940828	47111.7965979	47182.6991129	47243.1721158	46084.9452365	2133	124.0
6110.90110547	6321.78250216	6532.66389886	6421.92418495	6210.34593388	2133	130.0
2503.23244567	2635.76734097	2768.30223627	2835.79371855	2634.68004646	-26	134.0
-784.25237915	-985.366051244	-1186.47972334	-1233.23605114	-1163.44953559	-2133	135.0
-443.782236828	-479.869795236	-515.957353643	-515.819786838	-495.180015627	-2133	138.0
-82.3845914103	-61.7448201995	-41.1050489886	-80.7597465035	-145.740052564	-2133	139.0
30864.6121564	30928.4669901	30992.3218238	30690.8432555	30201.5887384	2133	146.0
-25084.171697	-25573.4262141	-26062.6807312	-26151.1185902	-26031.240179	-1040	147.0
1680.09091745	1654.67819028	1629.2654631	1622.19648794	1632.24092985	-26	150.0
2254.99632816	2265.04077006	2275.08521197	2182.51018577	1942.95615866	-26	151.0
-3327.23243768	-3566.78646478	-3806.34049189	-3964.71181917	-3822.14920469	-1040	152.0
1732.416759	1755.73920293	1779.06164685	1653.8564619	1452.00945341	-26	154.0
-2181.23669931	-2383.0837078	-2584.93071628	-2756.79860546	-2652.68546835	-2133	155.0
7922.28786654	7980.75843451	8039.22900248	7734.03077672	7389.00809529	2133	160.0
-6411.89916194	-6756.92184337	-7101.94452481	-7145.43920015	-6918.74347507	-1040	161.0
6922.84189512	6991.56078857	7060.27968202	6549.94319762	6006.46336942	2133	164.0
-5950.09285104	-6493.57267924	-7037.05250744	-6798.09783973	-6469.35374692	-1040	165.0
3448.10416068	3476.59847659	3505.0927925	3272.9610719	2957.43707468	-26	169.0
-3668.5668669	-3984.09086412	-4299.61486134	-4528.44828362	-4329.22737533	-1040	170.0
-2243.94937693	-2489.65243584	-2735.35549475	-2676.42144996	-2562.36872417	-2133	173.0
5415.35294118	5515.6372549	5615.92156863	5417.85456893	5085.80631642	2133	177.0
-2219.25523874	-2551.30349124	-2883.35174375	-2967.31126105	-2859.77876309	-2133	178.0
4501.72462344	4516.59980161	4531.47497978	4103.40316858	3537.76524563	2133	180.0
-6643.71736745	-7209.3552904	-7774.99321335	-7790.23366833	-7529.2652633	-1040	181.0
-574.692528148	-614.629233988	-654.565939829	-647.97115232	-615.040337421	-2133	184.0
2808.35750422	2908.65598651	3008.9544688	3069.57625201	2925.026111	-26	187.0
-255.076991366	-399.627132382	-544.177273399	-545.653172065	-530.781328139	-2133	188.0
1888.81749991	1940.42402989	1992.03055987	1848.62887063	1536.09801978	-26	190.0
-1901.74133961	-2214.27219046	-2526.80304131	-2770.21930629	-2626.40821393	-2133	191.0
186.333318213	144.44672944	102.560140668	107.809231692	125.165465016	-2106	193.0
2142.46361576	2544.23345039	2946.00328503	2487.82138886	567.245187664	-26	197.0
-4624.33289871	-4949.44129535	-5274.549692	-5393.22074751	-5281.5508816	-1040	201.0
-1524.01802871	-1725.32214267	-1926.62625663	-1883.80741984	-1827.72474852	-2133	204.0
359.499432872	415.582104189	471.664775507	379.348833066	220.640818508	-26	205.0
-2001.2713853	-2159.97939986	-2318.68741442	-2464.14691595	-2338.53806328	-2133	206.0
1756.2249969	1787.84157072	1819.45814453	1820.87633714	1618.17748918	-26	208.0
-1625.00407825	-1827.70292622	-2030.40177418	-2211.65587669	-2106.08285164	-2133	209.0
-745.085170522	-843.996766039	-942.908361555	-953.538079096	-898.769491525	-2133	211.0
1291.9740113	1346.74259887	1401.51118644	1359.31425359	1212.00101983	-26	212.0
-1734.26365534	-1881.5768891	-2028.89012286	-1979.86745666	-1894.3135835	-2133	213.0
1488.86707285	1536.87671523	1584.88635762	1564.00086527	1497.54377244	-26	215.0
5315.96687697	5416.2681388	5516.56940063	5487.39292423	5137.86798133	2133	219.0
-2202.15581976	-2551.68076267	-2901.20570558	-3033.54348867	-2892.45890864	-2133	220.0
929.841622001	1011.83945141	1093.83728081	1001.57971563	869.789252155	-26	222.0
-711.696309602	-843.486773082	-975.277236561	-932.100021643	-863.494792657	-2133	223.0
4353.76419191	4419.08604999	4484.40790807	3985.88619493	2722.98517702	2133	225.0
-2328.61889461	-3591.51991252	-4854.42093042	-5402.95209948	-4779.72095801	-1040	226.0
2669.80055892	2742.34033693	2814.88011495	2848.68096426	2810.6729405	-26	228.0
-2099.18995138	-2246.59728643	-2394.00462148	-2390.18485467	-2288.27448169	-2133	230.0
2399.60267548	2501.51304847	2603.42342145	2626.74421385	2435.64391499	-26	231.0
-1959.66295866	-2150.76325751	-2341.86355637	-2322.80723574	-2232.99042636	-2133	232.0
-1249.48608222	-1640.87691605	-2032.26774988	-1918.28157924	-1748.79019918	-2133	234.0
1302.05464183	1471.54602189	1641.03740194	1698.42484545	1564.04574685	-26	235.0
-182.88253493	-317.261633528	-451.640732126	-531.011346941	-475.948555894	-2133	236.0
735.432847141	790.495638188	845.558429235	834.372931823	766.28699267	-26	237.0
-1755.1540611	-2039.64644052	-2324.13881994	-2530.59658283	-2436.44663568	-2133	242.0
3378.33893618	3413.69718917	3449.05544216	2835.45270463	2033.77943888	-26	244.0
-355.506153721	-463.502439325	-571.49872493	-651.477764218	-604.267232687	-2133	247.0
-835.435943764	-945.031176891	-1054.62641002	-1152.0157374	-1076.37486026	-2133	250.0
8623.83188953	8718.66812217	8813.50435481	8159.88821681	7286.90559757	2133	252.0
4945.05523528	5126.54288377	5308.03053227	5290.1236146	4943.46456491	2133	254.0
-3723.01167725	-4069.67072694	-4416.32977663	-4303.72647012	-4091.74097921	-1040	255.0
-8871.03366741	-9617.09414758	-10363.1546278	-10277.5801568	-9814.69343066	-1040	261.0
-676.47762389	-789.552841944	-902.628059997	-873.103305455	-793.539437307	-2133	263.0
1195.55726639	1275.12113454	1354.68500269	1312.35302845	1150.95349738	-26	264.0
-947.24040651	-1108.63993758	-1270.03946865	-1199.1172597	-1123.8539744	-2133	265.0
764.22813049	804.94129955	845.654468611	829.42273802	778.743584442	-26	267.0
1380.02710384	1423.47014317	1466.91318251	1475.39473013	1405.12047143	-26	272.0
-281.461737279	-351.735995975	-422.010254672	-450.770749876	-424.713628913	-2133	273.0
-2401.68734188	-2563.95105386	-2726.21476585	-2831.88969927	-2735.3400171	-2106	277.0
933.547905089	1030.09758725	1126.64726942	1158.50750417	1061.07156718	-26	278.0
-1179.95498352	-1277.3909205	-1374.82685749	-1461.70814663	-1394.93591644	-2133	279.0
-1565.42531623	-1738.23420377	-1911.04309132	-1970.49343431	-1866.81937399	-2133	281.0
4871.99454689	4975.66860721	5079.34266753	4963.49584028	4759.69046452	2133	282.0
-2373.49768708	-2577.30306284	-2781.1084386	-2917.27051808	-2850.30326387	-2106	283.0
2903.72919818	3003.85779123	3103.98638427	2900.8603183	2561.65631627	-26	289.0
-830.383704102	-1169.58770614	-1508.79170818	-1659.79209777	-1549.40914789	-2133	290.0
3148.63856453	3181.97539685	3215.31222918	3149.07783434	2748.4543302	-26	292.0
-3260.89823197	-3661.52173612	-4062.14524026	-3908.70542103	-3695.75798086	-1040	293.0
23644.3058342	23734.4158604	23824.5258867	23869.6319602	23490.1555747	2133	297.0
-14836.9593578	-15216.4357433	-15595.9121288	-15751.4124988	-15542.243664	-1040	298.0
-304.409680072	-190.702593027	-76.9955059817	-433.699378418	-1231.0401451	-2133	300.0
1930.99033954	2154.42394001	2377.85754047	2500.4653219	2308.95321707	-26	302.0
-755.240460191	-946.75256502	-1138.26466985	-1079.35748604	-998.033062007	-2133	303.0
3403.35019422	3419.37813828	3435.40608233	3428.73462676	3377.80950855	-26	305.0
-4704.78054516	-5017.3457087	-5329.91087224	-5596.65858029	-5299.19994754	-1040	307.0
1605.43661972	1705.77640845	1806.11619718	1748.32768329	1609.9145552	-26	310.0
87.3701462167	-51.0429818731	-189.456109963	-284.110996053	-243.697687435	-2133	311.0
-328.925758215	-363.011241429	-397.096724643	-394.01705518	-370.994057766	-2133	314.0
-2.62609913135	20.3968982833	43.4198956979	6.97749573272	-36.9700517064	-2133	315.0
3960.26747622	4016.32253737	4072.37759852	3711.54160739	3143.30617898	2160	320.0
-3675.51896195	-4243.75439036	-4811.98981877	-4696.7786526	-4390.77613319	-1040	321.0
3246.2656775	3333.14071596	3420.01575442	3251.46003414	2874.97759496	-26	326.0
-2395.77655362	-2772.25899281	-3148.74143199	-3226.32600582	-3051.79647578	-2106	327.0
-283.283532836	-320.550882598	-357.818232361	-365.986968813	-339.783949698	-2133	329.0
1229.48684923	1270.54967621	1311.61250318	1333.55268067	1256.98386569	-26	331.0
-350.961248742	-427.530063716	-504.098878689	-575.291079812	-539.614710485	-2133	332.0
2506.27786033	2606.52897474	2706.78008915	2753.61186641	2669.39429115	-26	337.0
1864.08070489	1944.20564861	2024.33059233	1918.51873076	1709.10872444	-26	340.0
-1432.04137046	-1641.45137679	-1850.86138312	-1991.01714507	-1887.00384755	-2133	341.0
4224.62344319	4248.1273508	4271.63125841	4291.32618462	3652.48945788	2133	345.0
371.196610633	424.053185712	476.909760791	412.388738167	300.96732168	-26	348.0
-367.561177243	-478.98259373	-590.404010218	-690.100423154	-610.117468829	-2133	349.0
4663.10941213	4724.17159084	4785.23376954	4843.1366818	4252.35620541	2133	351.0
-3427.78998765	-4018.57046403	-4609.35094042	-4935.08523425	-4689.10557346	-1040	352.0
-516.847138332	-608.738507813	-700.629877295	-761.007174426	-704.553958165	-2133	354.0
3002.67598843	3102.76518804	3202.85438766	3209.82090716	3050.59891317	-26	357.0
10192.9853285	10263.6587063	10334.3320841	10282.9283404	9275.88719687	2133	361.0
2470.92769402	2562.41903414	2653.91037426	2681.78749435	2395.38906866	-26	364.0
-1614.18889094	-1900.58731663	-2186.98574231	-2056.60915039	-1860.50414882	-2133	365.0
-3036.39537473	-3260.6314427	-3484.86751067	-3460.10801196	-3408.08085298	-1040	369.0
6658.80786636	6735.13537884	6811.46289131	6283.49582914	5575.26840211	2133	372.0
-5048.14300336	-5756.37043039	-6464.59785742	-6614.2107593	-6337.86567892	-1040	373.0
3035.6867113	3075.03048343	3114.37425556	3143.46822417	3074.34966951	-26	375.0
4192.07137827	4295.53993746	4399.00849665	4249.51164982	4089.86460045	2133	380.0
916.620773928	966.77989227	1016.93901061	957.885146966	826.038702889	-26	384.0
-756.118626036	-887.965070113	-1019.81151419	-968.862453941	-878.903356823	-2133	385.0
831.949647146	953.649014859	1075.34838257	1156.95046237	1066.92354329	-26	390.0
688.460974143	706.442604956	724.424235768	662.757329679	85.4397046136	-26	397.0
-855.043716247	-941.509836485	-1027.97595672	-1040.42740298	-968.64839386	-2133	401.0
108.036742888	179.815752004	251.594761121	244.099438976	167.594010283	-2106	402.0
-444.449419261	-520.954847954	-597.460276647	-645.055402477	-573.76992764	-2133	403.0
16789.3457176	16876.0765433	16962.807369	16743.8510407	16325.9490096	2133	406.0
-11255.5850455	-11673.4870767	-12091.3891078	-12077.3905539	-11721.614971	-1040	407.0
10264.5278545	10357.0739056	10449.6199567	9756.51862805	8942.08970852	2133	410.0
-7346.48868222	-8160.91760175	-8975.34652129	-9290.00661248	-8746.66524315	-1040	411.0
1049.44563592	1093.7395839	1138.03353188	1166.96105426	1129.52083205	-26	415.0
328.229688808	334.010418158	339.791147509	335.033605583	234.289839265	-2106	417.0
-1075.37912287	-1176.12288919	-1276.86665551	-1324.03156397	-1242.48356939	-2133	418.0
-317.411623729	-382.888724575	-448.36582542	-491.485291453	-474.917940199	-2133	428.0
658.085126352	689.827479109	721.569831867	664.35325477	579.949494949	-26	431.0
-432.895622896	-517.299382716	-601.703142536	-580.403141789	-502.907131571	-2133	432.0
2519.43726693	2596.93327715	2674.42928737	2537.70125304	2323.5605139	-26	433.0
-1530.97279069	-1745.11352983	-1959.25426897	-2032.5710027	-1937.08440887	-2133	434.0
8613.75	8713.90988372	8814.06976744	8882.0879097	8221.11810135	2133	436.0
8227.73645189	8366.46648433	8505.19651678	8566.09783323	8386.5762149	2133	438.0
-3461.850595	-3641.37221333	-3820.89383167	-3922.88206325	-3831.68896328	-1040	439.0
26900.3857287	26991.5788286	27082.7719286	25945.7871067	22639.3992915	2133	440.0
1384.65503298	1346.46469179	1308.27435059	1312.1222276	1317.42127596	-26	447.0
-1689.06684213	-3481.84431633	-5274.62179053	-5270.13865456	-5084.23165808	-1040	449.0
-3445.01164613	-5255.41380661	-7065.8159671	-6814.16644275	-6542.75670996	-1040	454.0
-896.160261059	-1086.0595293	-1275.95879755	-1317.51003066	-1257.7932602	-2133	456.0
-923.611668799	-1012.59232921	-1101.57298961	-1163.60627517	-1075.67553486	-2133	458.0
7818.23157965	7884.86798553	7951.50439141	7485.52045827	6596.55257774	2133	461.0
-5848.99774959	-6737.96563011	-7626.93351064	-7660.7535458	-7457.32676053	-1040	462.0
2014.19354839	2114.90322581	2215.61290323	2224.91018409	2085.39300794	-26	464.0
3498.96562177	3565.86835696	3632.77109215	3527.78171186	3398.68474489	-26	467.0
11453.6674111	11489.9231025	11526.1787938	11423.193911	9385.80247065	2133	470.0
-10988.1119333	-13025.5033737	-15062.8948141	-15397.9162938	-15040.4814521	-1040	471.0
1507.83018868	1608.35220126	1708.87421384	1671.89945185	1557.7900602	-26	473.0
188.477360414	74.367968765	-39.7414228838	-96.7039179339	-58.6342278868	-2133	474.0
740.829263102	778.898953149	816.968643196	752.13349813	684.432900098	-26	475.0
-331.076070373	-398.776668405	-466.477266436	-482.46138058	-453.383549624	-2133	476.0
754.91531731	780.159930319	805.404543328	693.499496373	510.788221403	-26	478.0
-1133.61325333	-1316.3245283	-1499.03580327	-1483.77991922	-1374.19474128	-2133	479.0
1255.84952915	1365.43470708	1475.01988501	1317.11897094	1120.10416259	-26	480.0
-850.043920843	-1047.05872919	-1244.07353753	-1300.15450438	-1202.06311743	-2133	481.0
-2255.14027261	-2563.16189431	-2871.18351602	-3029.75695289	-2927.51864186	-2133	486.0
-2629.25813372	-2815.60190033	-3001.94566694	-3018.52980286	-2910.02953912	-2106	491.0
3716.28753181	3816.72773537	3917.16793893	3874.73982316	3653.49608577	2106	493.0
-992.622399447	-1213.86613684	-1435.10987423	-1433.97865956	-1355.8735417	-2133	494.0
6229.29878049	6329.77134146	6430.24390244	6470.01218024	5503.5462601	2133	497.0
2236.03766426	2272.31349061	2308.58931696	1659.09511078	960.78451028	-26	501.0
-1134.14729121	-1832.45789171	-2530.76849221	-2941.25336473	-2765.9871679	-2133	502.0
-539.068732862	-698.001659691	-856.93458652	-953.107983465	-884.661808784	-2133	504.0
1100.27725698	1168.72343166	1237.16960634	1257.08668278	1147.10192668	-26	505.0
-832.623683071	-942.608439169	-1052.59319527	-1098.01311364	-1048.70055542	-2133	506.0
-473.717425611	-536.05306993	-598.388714249	-618.48043043	-559.601794898	-2133	515.0
3713.79506173	3814.16790123	3914.54074074	3976.82474227	3524.2156701	2106	517.0
-1454.48412371	-1907.09319588	-2359.70226804	-2468.44225272	-2320.85285878	-2133	518.0
1264.32088285	1275.96833748	1287.61579212	1261.38308153	1078.08603727	-26	520.0
-1488.07258239	-1671.36962665	-1854.66667092	-1796.30792392	-1688.12227961	-2133	521.0
6468.35682021	6518.01775342	6567.67868664	6509.09467768	5826.35462147	2133	525.0
-6462.96639022	-7145.70644642	-7828.44650263	-7944.62207981	-7766.21378541	-1040	526.0
2511.11898017	2611.56373938	2712.00849858	2587.60984159	2448.94857811	-26	528.0
694.438055429	716.634239981	738.830424533	742.420711588	713.16553851	-26	537.0
749.048869009	742.010084386	734.971299762	728.060781449	734.400388839	-26	540.0
934.355024748	935.982237137	937.609449525	824.161439063	674.371496839	-26	542.0
-1272.89775206	-1422.68769429	-1572.47763651	-1609.66513883	-1512.38739125	-2133	543.0
5984.25427231	6042.08021115	6099.90614998	5810.1351026	5479.41840718	2133	545.0
13428.7086878	13519.1398752	13609.5710626	13676.5278754	13059.8841749	2133	548.0
-10372.5764452	-10989.2201457	-11605.8638462	-11916.6895248	-11476.903062	-1040	549.0
6183.67679182	6260.71264066	6337.7484895	6212.42560675	5605.26881286	2133	556.0
-5323.55347708	-5930.71027097	-6537.86706485	-6367.90967354	-6197.78209816	-1040	557.0
5706.94267952	5717.82061444	5728.69854937	5248.12131902	4700.75500276	2133	560.0
-6246.57132237	-6793.93763863	-7341.30395489	-7831.27634705	-7521.94049492	-1040	561.0
1693.01039574	1717.54195151	1742.07350727	1579.57080637	1327.78656093	-26	566.0
-1945.40862981	-2197.19287525	-2448.97712069	-2394.6229817	-2256.64039031	-2133	567.0
-248.490185003	-294.848551287	-341.206917571	-355.363158551	-332.497399153	-2133	569.0
-493.880525682	-556.941153967	-620.001782252	-613.461305416	-579.121697762	-2133	579.0
176.349670617	210.689278271	245.028885925	201.711288706	151.038272463	-2106	580.0
3206.16611296	3306.35880399	3406.55149502	3311.00983944	3071.58131046	-26	584.0
-759.275153257	-998.703682239	-1238.13221122	-1390.64717973	-1302.67886175	-2133	585.0
2831.8320832	2919.80040117	3007.76871915	2989.72199777	2801.25926291	-26	586.0
-1721.84637367	-1910.30910853	-2098.77184338	-2255.42321822	-2174.24936074	-2133	587.0
-776.746894965	-836.348700911	-895.950506857	-889.373837961	-876.671530431	-2133	590.0
2643.2590829	2709.90388854	2776.54869418	2623.01028651	2403.01582137	-26	592.0
-1996.87348144	-2216.86794658	-2436.86241172	-2628.98808141	-2523.85019324	-2133	593.0
7640.28810306	7702.56079997	7764.83349687	7409.2760027	6822.78574317	2133	595.0
-6666.49022582	-7252.98048534	-7839.47074486	-8340.02690608	-8041.70988103	-1040	596.0
1253.27771891	1283.65222725	1314.02673559	1324.98304961	1181.94508991	-26	598.0
-1535.77614434	-1678.81410404	-1821.85206373	-1865.60127684	-1775.39807594	-2133	599.0
1201.30755358	1291.51075448	1381.71395537	1354.51895766	1203.59331067	-26	600.0
-1211.21704127	-1362.14268827	-1513.06833527	-1648.55386179	-1566.30817512	-2133	601.0
-3355.75247185	-4463.92572627	-5572.0989807	-6225.03611827	-5967.06147107	-1040	613.0
-24645.5130823	-25164.7132495	-25683.9134167	-25675.1531361	-25381.2233498	-1040	619.0
-6434.80103266	-6710.41970053	-6986.03836841	-7221.92436696	-6991.8844928	-1040	622.0
23164.8099579	23263.7582032	23362.7064484	23019.405612	21690.8474839	2133	624.0
-19494.4544869	-20823.012615	-22151.5707431	-22096.190745	-21905.371648	-1040	625.0
10934.2152466	11034.529148	11134.8430493	11135.9252882	10417.4224101	2133	632.0
-6826.64666449	-7545.1495426	-8263.65242071	-8250.8173318	-7935.2496504	-1040	633.0
6341.53792977	6413.61160739	6485.68528501	6431.6581369	6234.51293003	2133	635.0
-3425.60220662	-3622.74741349	-3819.89262036	-3857.20152265	-3802.33530201	-1040	636.0
829.366617497	765.441159131	701.515700765	675.494534946	684.094274281	-26	641.0
1062.48280499	1071.08254432	1079.68228366	1026.48989229	934.484954608	-26	642.0
9426.40728226	9514.39817763	9602.389073	9391.3151786	8946.39810555	2133	650.0
-6180.78237802	-6625.69945107	-7070.61652412	-7377.12085547	-7170.60612274	-1040	651.0
6594.23796289	6609.54037937	6624.84279586	6531.48925796	6364.98084217	2133	654.0
-6123.15034144	-6289.65875722	-6456.167173	-6495.05828322	-6456.6066344	-1040	655.0
11008.2029128	11133.3632514	11258.5235899	11303.6372983	11214.1913758	2133	657.0
4257.97619989	4308.02316771	4358.07013553	3845.96831754	3157.92556397	2133	660.0
-10602.9295073	-11290.9722608	-11979.0150144	-11783.4756216	-11186.3850697	-1040	661.0
-4540.72047295	-4877.6362089	-5214.55194486	-5117.72058297	-4994.31789433	-1040	664.0
3150.25955549	3273.66224412	3397.06493276	3417.81610446	3335.13512017	-26	665.0
9826.10207337	9926.36842105	10026.6347687	9974.70860364	9797.02454894	2133	667.0
3652.69936215	3752.72637894	3852.75339574	3783.74455194	3569.37917064	2106	670.0
-3290.31303099	-3504.6784123	-3719.0437936	-3877.84988609	-3773.84448904	-1040	671.0
2778.49552506	2882.50092211	2986.50631916	3013.68280967	2871.91154951	-26	672.0
-2373.62507631	-2515.39633647	-2657.16759663	-2589.78595405	-2518.14052666	-2106	673.0
3907.23666667	4007.42222222	4107.60777778	3995.42167196	3803.3198448	2133	677.0
-807.124007055	-999.225834215	-1191.32766138	-1272.73754156	-1206.87191504	-2133	678.0
-2215.99183731	-2336.54443741	-2457.09703751	-2548.33313495	-2468.64476125	-2133	681.0
-3466.29148482	-3701.84373497	-3937.39598511	-4055.53849943	-3931.67864129	-1040	685.0
8949.7466058	9073.60646394	9197.46632209	8524.30297045	7683.41283521	2133	686.0
-6611.71946376	-7452.609599	-8293.49973423	-8433.76992303	-8078.16021526	-1040	687.0
11921.7929063	12001.5719401	12081.3509738	11177.6909971	10169.7422365	2133	689.0
-9989.23297614	-10997.1817368	-12005.1304974	-11968.8732261	-11636.1851466	-1040	690.0
-1240.05859844	-1364.24113913	-1488.42367981	-1485.85029887	-1417.14469575	-2133	692.0
-6077.59233038	-6461.96371681	-6846.33510324	-6847.28331434	-6683.18675095	-1040	697.0
3162.60705229	3326.70361568	3490.80017906	3140.22432878	2678.24221289	-26	698.0
-3327.52529374	-3789.50740963	-4251.48952552	-4602.63839851	-4412.11758286	-1040	699.0
5365.67534188	5404.09805685	5442.52077181	5165.54729739	4596.33414495	2133	702.0
-6218.71575146	-6787.9289039	-7357.14205634	-7804.41276692	-7452.50523148	-1040	703.0
5874.34729135	5964.95626902	6055.56524669	5966.85627388	5733.63730249	2133	712.0
-3128.68361045	-3361.90258184	-3595.12155324	-3663.82137111	-3585.95858026	-1040	713.0
749.862368767	761.440523455	773.018678143	773.912103869	708.018501751	-26	716.0
-741.640744854	-807.534346972	-873.42794909	-863.120169082	-825.101884493	-2133	717.0
-820.539322354	-900.062906594	-979.586490834	-1054.15657419	-1007.02078987	-2133	721.0
532.725042395	568.954877232	605.184712069	579.648141089	494.355209566	-26	726.0
12827.7775354	12927.9945474	13028.2115594	6743.20020121	-2373.37199917	-2106	729.0
6743.20020121	-2373.37199917	-11489.9441995	-12267.0369732	-11674.4836927	-2106	730.0
4874.93505656	5078.86856123	5282.8020659	4962.0296073	4567.28470862	2133	738.0
-2538.12346759	-2932.86836627	-3327.61326495	-3631.41593854	-3508.57245901	-1040	739.0
3493.50587445	3616.34935398	3739.19283351	3683.69427428	3245.31270772	-26	740.0
-3330.41079064	-3768.7923572	-4207.17392375	-4047.36356833	-3819.41899202	-1040	741.0
-2786.05266881	-3056.3456074	-3326.63854598	-3251.8460346	-3145.92955187	-2106	747.0
16448.6197535	16554.5362362	16660.4527189	15956.6718878	14860.9455111	2133	748.0
-13627.9402831	-14723.6666598	-15819.3930365	-15648.2434246	-15296.6532133	-1040	749.0
84556.4109023	84648.3188524	84740.2268025	84826.0581623	80773.4326478	2133	751.0
-77278.9624201	-81331.5879347	-85384.2134492	-84919.0449337	-83962.1672835	-1040	752.0
-5377.32748378	-5704.27398748	-6031.22049118	-5904.1451253	-5750.95996773	-1040	754.0
2006.21434896	2015.79355764	2025.37276632	1929.85569027	1812.83248343	-26	756.0
-2517.02616978	-2634.04937663	-2751.07258347	-2707.76426549	-2631.55036975	-2106	757.0
11134.2197263	11183.7168379	11233.2139495	11084.0855543	10751.2029253	2133	760.0
-8223.10693127	-8555.98956033	-8888.87218939	-8894.84564988	-8779.44723474	-1040	761.0
12569.2595656	12684.6579807	12800.0563958	12857.0228734	12327.4595568	2133	762.0
-12562.0163255	-13091.5796422	-13621.1429588	-13856.281515	-13707.079951	-1040	763.0
3711.76923077	3812.08731809	3912.40540541	3929.50828763	3814.24690047	2106	765.0
1701.66608846	1801.76409367	1901.86209887	1848.67450189	1729.45346508	-26	770.0
3134.87139978	3275.08628844	3415.30117711	3455.08789704	3337.00233249	-26	774.0
-87.4790396531	-205.56460421	-323.650168766	-314.499287924	-275.64462791	-2133	775.0
1395.1057527	1433.96041271	1472.81507272	1440.73712009	1120.24906992	-26	776.0
-2405.11948199	-2725.60753216	-3046.09558234	-3231.73318783	-3090.4101828	-2106	777.0
1087.34909636	1231.54433089	1375.73956541	1405.10237832	1309.09545107	-26	780.0
7093.4940323	7177.38999117	7261.28595003	6476.87892899	5308.71711826	2133	782.0
-5204.73917831	-6372.90098904	-7541.06279977	-8088.79153197	-7802.25557552	-1040	783.0
1653.43098749	1939.96694394	2226.5029004	2190.20381809	1834.52524554	-26	784.0
14086.9161168	14193.6046478	14300.2931788	14114.2600795	13835.3054719	2133	786.0
-7086.29009665	-7365.24470423	-7644.19931181	-7676.30321753	-7579.28912677	-1040	787.0
-2340.52822585	-2243.51413509	-2146.50004434	-2351.74647361	-2747.44849418	-2106	788.0
-3934.55455589	-4330.25657646	-4725.95859704	-5022.03923335	-4756.9974564	-1040	789.0
-852.092411565	-935.823926784	-1019.555442	-1044.14679413	-969.604833576	-2133	792.0
-3649.80610099	-3943.91738957	-4238.02867815	-4158.41682173	-4051.5789271	-1040	794.0
9461.00538462	9517.10121457	9573.19704453	9311.92063218	8394.78181034	2133	797.0
-8113.71698276	-9030.8558046	-9947.99462644	-10012.7948709	-9795.59200512	-1040	798.0
-6834.61118692	-7164.74277888	-7494.87437084	-7535.26882364	-7418.44378996	-1040	801.0
1097.30630729	1203.24079895	1309.17529061	1353.4032707	1267.69631814	-26	804.0
-960.684448253	-1046.39140081	-1132.09835336	-1188.54824741	-1140.91340075	-2133	805.0
18607.104072	7970.81846932	-17972.1804765	-20577.3059772	-20084.9172845	-2106	812.0
-1710.51780669	-1958.77350857	-2207.02921046	-2262.23206517	-2185.08804135	-2133	814.0
-2386.63829093	-2559.28387822	-2731.92946551	-2788.49270341	-2695.95679706	-2106	817.0
5909.88249418	6002.41840054	6094.9543069	1636.91694752	-6142.85491895	2160	818.0
32718.9445117	32847.0235473	32975.102583	30988.0966262	28657.5255756	2133	820.0
-24945.6085883	-27276.1796389	-29606.7506896	-30291.0983987	-30008.7268242	-1040	821.0
11782.2662116	12064.6377862	12347.0093608	12356.5419406	12019.5100965	2133	822.0
-8202.4005461	-8539.43239014	-8876.46423419	-8769.68476307	-8656.85101245	-1040	823.0
-12223.6968477	-12435.0716615	-12646.4464754	-12719.8982426	-12566.0389367	-1040	826.0
8666.54527629	8820.40458218	8974.26388807	8978.40286243	8558.13374001	2133	827.0
-8672.90027919	-9093.16940161	-9513.43852403	-9654.09055522	-9470.81671624	-1040	828.0
-3023.76450054	-3216.20625873	-3408.64801693	-3490.87167218	-3384.95033275	-1040	830.0
-9506.39077976	-9727.20380758	-9948.01683539	-9952.81809083	-9832.51504796	-1040	833.0
12543.8509257	12664.1539686	12784.4570115	12663.6461659	12471.2420348	2133	834.0
3546.08158782	3716.55556222	3887.02953663	3951.69878306	3828.90571977	2106	843.0
-223.265368796	-346.058432086	-468.851495376	-424.278424565	-373.853259153	-2133	844.0
2601.23150016	2651.65666558	2702.08183099	2709.7637002	2555.0552861	-26	845.0
-2395.61396489	-2550.32237899	-2705.03079308	-2769.84122442	-2695.571109	-2106	846.0
-3836.07363361	-4149.74645539	-4463.41927717	-4401.25214097	-4295.52228086	-1040	851.0
10724.8577301	10792.2271342	10859.5965384	10266.3808069	9626.96769966	2133	855.0
-11473.6648389	-12113.0779461	-12752.4910533	-12493.1094673	-12218.7090818	-1040	856.0
4378.61103126	4409.19518905	4439.77934683	4385.30547374	4234.77587787	2133	858.0
-3893.8222994	-4165.84185906	-5134.54973153	-5321.8750744	-5068.26221486	-1040	860.0
-2119.9032581	-2277.19897908	-2434.49470006	-2555.37536523	-2407.83850985	-2133	864.0
3788.70941634	3936.24627173	4083.78312711	4148.71185083	3969.67449155	-2106	865.0
-1043.37156828	-1222.40892756	-1401.44628684	-1426.63145942	-1408.18839721	-2133	866.0
10937.3714458	11059.9900951	11182.6087444	10802.5790926	10008.3980222	2133	873.0
2950.62210318	2958.88222921	2967.14235524	2941.26582712	2897.33270127	-26	877.0
-47.0888334996	-2655.72051894	-5264.35220438	-5582.57262138	-5417.34910959	-2106	879.0
7800.53183378	7965.75534557	8130.97885736	5993.13554331	2608.80327701	2133	880.0
-775.528989298	-4159.8612556	-7544.19352191	-7468.7847153	-6927.27889082	-1040	881.0
1195.30847642	-84.868194127	-1441.06252855	-1348.09042567	-1196.25409649	-2133	883.0
8112.70704203	8238.14961211	8363.59218219	2440.44891789	-8404.80872633	2160	886.0
1689.76385098	2078.01664242	2466.26943385	2592.16156607	1986.85166395	-26	888.0
-434.387944535	-1039.69784666	-1645.00774878	-2044.33037279	-1881.47896613	-2133	889.0
886.994947038	1049.84635369	1212.69776035	-259.375377372	-1865.79057695	-2106	890.0
-933.377509125	-1594.5632582	-2255.74900728	-2153.94698894	-2043.68477072	-2133	893.0
13503.2879986	13613.5502168	13723.812435	13225.5185347	12528.0645013	2133	894.0
-9093.01053499	-9790.46456842	-10487.9186018	-10927.2203887	-10739.357057	-1040	895.0
20546.1819975	20586.6247805	20627.0675635	19722.53095	13892.6876862	2133	901.0
-15256.5286329	-21086.3718967	-26916.2151605	-27842.9179857	-26609.7200821	-1040	902.0
4947.02397832	5017.65065234	5088.27732636	923.401164201	-4172.10016978	2160	914.0
5088.27732636	923.401164201	-4172.10016978	-5684.27398489	-5294.33342025	-2106	915.0
944.715613858	1334.65617849	1724.59674312	1374.7715933	946.459297751	-26	916.0
2613.70084706	2729.56840309	2845.43595912	1109.89454887	-2878.79100621	-26	919.0
5918.80263957	5990.08403345	6061.36542732	6052.41958411	5909.08966492	2133	928.0
-1400.7362142	-1544.0661334	-1687.3960526	-1710.99393617	-1696.4849995	-2133	929.0
-1116.1275327	-1101.61859603	-1087.10965936	-1280.09427528	-1474.65908233	-2133	930.0
-2836.61273171	-3031.17753876	-3225.74234581	-3156.17892699	-3026.12127463	-2106	931.0
-1597.64382432	-1874.87666441	-2152.10950451	-2277.91597155	-2095.55514072	-2133	935.0
205.153672019	229.997536563	254.841401106	-171.412357465	-2117.80588703	-2133	940.0
254.841401106	-171.412357465	-2117.80588703	-2211.39402442	-2052.78542057	-2133	941.0
2112.38750165	2336.66227828	2560.9370549	2559.51718733	1259.70811812	-26	944.0
3447.23842536	3482.95754742	3518.67666948	3472.16154833	3317.09249533	-26	949.0
2913.6506582	2936.62964381	2959.60862941	2965.49043756	2836.64011617	-26	953.0
-2235.94069101	-2595.88056789	-2955.82044476	-2956.17892418	-2719.01835873	-2133	955.0
1690.28328676	1695.24444317	1700.20559957	1660.0033871	1594.2099485	-26	957.0
-1178.00327262	-1730.29646878	-2282.58966493	-2783.04646686	-2537.49671014	-2133	959.0
-2301.88409737	-2564.11699351	-2826.34988966	-3019.7916311	-2814.47654304	-2106	962.0
-3356.79455487	-3820.47866933	-4284.16278379	-4478.20105885	-4343.21460022	-1040	970.0
5319.70512821	5420.07692308	5520.44871795	4957.27550685	4307.80696515	2133	974.0
4249.70706035	4392.50319564	4535.29933092	4407.94023063	4080.83071398	2133	976.0
-2788.46913561	-3115.57865226	-3442.68816891	-3490.5210084	-3358.09771601	-1040	977.0
5704.86338243	5804.94870493	5905.03402743	5756.7705824	5350.82179556	2133	980.0
-2768.15394127	-3174.10272811	-3580.05151495	-3448.01605481	-3288.17758348	-1040	981.0
5007.35638427	5064.96422822	5122.57207217	4545.19518384	3888.06755854	2133	984.0
-4654.59157039	-5311.71919569	-5968.846821	-6009.73361031	-5869.67767624	-1040	985.0
8976.25133495	9116.30726902	9256.36320308	7728.78620469	4927.96546326	2133	986.0
4333.15827253	4439.32774561	4545.49721869	3467.90315101	1795.58903841	2160	989.0
42659.898814	42750.2442674	42840.5897209	40738.8243582	37731.5440098	2133	992.0
-5414.93512215	-5799.02173275	-6183.10834335	-6088.9545213	-5892.11552087	-1040	995.0
-4151.12447589	-4503.98342684	-4856.84237779	-4911.77981492	-4758.50684331	-1040	998.0
-9048.26084305	-9228.29223523	-9408.32362741	-9366.75089273	-9262.53381565	-1040	1002.0
2383.7098757	2485.9013564	2588.09283709	2436.82753809	2252.13504776	-26	1005.0
-2365.17721071	-2549.86970105	-2734.56219139	-2854.77511539	-2757.63157724	-2106	1006.0
1985.6600422	2023.3444597	2061.0288772	1969.29657285	1801.31603158	-26	1008.0
-2062.23641771	-2230.21695898	-2398.19750026	-2410.7574796	-2320.70149711	-2133	1009.0
8644.15619315	8730.55048257	8816.94477199	8423.91547271	7800.33158836	2133	1013.0
-5294.92998287	-5918.51386721	-6542.09775156	-6766.90194989	-6169.5972426	-1040	1014.0
-110.554025289	-202.975314149	-295.396603009	-381.455015015	-319.847510001	-2133	1017.0
19175.5185968	19266.2826175	19357.0466383	18918.3751037	18163.2820164	2133	1022.0
1028.44890925	1042.44213462	1056.43535998	981.852322695	848.790312368	-26	1027.0
-5671.24819367	-5804.31020399	-5937.37221432	-5985.88945703	-5859.94611312	-1040	1028.0
9981.97724139	10069.6048941	10157.2325467	9832.25017983	9305.60795469	2133	1031.0
-7546.94324987	-8073.58547501	-8600.22770016	-8555.26380341	-8371.70721055	-1040	1032.0
2091.01858258	2274.57517544	2458.1317683	2406.50578184	2161.32053738	-26	1033.0
-2987.5695962	-3232.75484065	-3477.94008511	-3556.57452963	-3413.31106466	-1040	1034.0
7791.27467653	7866.56939875	7941.86412097	7047.48511273	5749.32417279	2133	1036.0
-5934.12428667	-7232.28522661	-8530.44616655	-9098.304804	-8881.05788873	-1040	1037.0
-4907.04542461	-5186.40121883	-5465.75701304	-5573.77796808	-5426.21215319	-1040	1040.0
5195.17606164	5198.19024002	5201.2044184	5168.80580674	4683.52153347	2133	1047.0
-12301.4280312	-12786.7123045	-13271.9965778	-13278.1865617	-13092.0593972	-1040	1048.0
6823.54719572	7009.67436014	7195.80152456	7275.35994742	7155.99291516	2133	1049.0
5810.57414966	5910.75646259	6010.93877551	5941.0362237	5475.51868885	2133	1052.0
-2903.79693846	-3369.31447331	-3834.83200816	-3824.14404194	-3694.30161167	-1040	1053.0
3576.87448344	3706.71691371	3836.55934398	3689.41907357	3539.1710829	2106	1054.0
-1719.5085906	-1869.75658127	-2020.00457194	-2035.29657295	-2003.2847954	-2133	1055.0
5929.83915449	6012.25992647	6094.68069845	5865.13466241	5454.04642325	2133	1057.0
-4823.15955574	-5234.2477949	-5645.33603406	-5888.88918684	-5713.45726481	-1040	1058.0
-676.628158261	-735.490384874	-794.352611488	-807.483534924	-797.702195447	-2133	1060.0
5409.35493852	5484.42173898	5559.48853943	4423.66904762	76.6557387057	2133	1062.0
6415.88033327	6492.99314111	6570.10594895	6280.22076421	5815.37801011	2133	1065.0
-3946.31982607	-4411.16258018	-4876.00533428	-5022.68298434	-4855.07779224	-1040	1066.0
843.498739168	1011.10393127	1178.70912337	1296.17168652	1156.09335028	-26	1067.0
-1365.31670207	-1505.39503831	-1645.47337455	-1627.5204408	-1535.9257155	-2133	1068.0
-6891.14913283	-7271.45377899	-7651.75842515	-7738.458946	-7531.27959428	-1040	1075.0
2827.68799216	3034.86734389	3242.04669562	3368.91267392	2215.1229271	-26	1076.0
-2400.03606018	-3553.825807	-4707.61555382	-4362.36471577	-3969.68677695	-1040	1077.0
32.0740883574	-37.6391330669	-107.352354491	-165.805135973	-106.099229857	-2133	1079.0
1207.4307047	1267.13661081	1326.84251693	1323.26031675	1222.50224083	-26	1080.0
-389.626973915	-490.385049836	-591.143125758	-568.509507287	-515.589894205	-2133	1081.0
1147.09296321	1153.46088785	1159.82881249	1074.93506522	987.520175308	-26	1083.0
-1023.02229273	-1110.43718265	-1197.85207256	-1238.51212847	-1181.33883806	-2133	1084.0
4620.8920967	4669.13413089	4717.37616508	4363.80800607	3778.95790751	2133	1086.0
-4993.79357089	-5578.64366945	-6163.49376801	-6250.2074631	-6082.92192763	-1040	1087.0
4288.7812713	4456.06680677	4623.35234223	4703.2661446	4471.6195346	2133	1088.0
-2709.4253755	-2941.07198551	-3172.71859551	-3128.84911615	-3032.13259174	-2106	1089.0
3157.72497056	3254.44149497	3351.15801938	3176.67570349	2820.18072006	-26	1090.0
28835.7437679	28923.9251901	29012.1066123	26034.2370351	22796.3602094	2133	1094.0
-22533.9153506	-25771.7921763	-29009.669002	-29869.8092627	-28609.5195789	-1040	1095.0
23246.3751108	23296.4683327	23346.5615547	22350.2522688	20632.7492032	2133	1100.0
-25739.8335688	-27457.3366344	-29174.8397	-30351.2768215	-29825.9932507	-1040	1101.0
-1600.51551319	-1714.59169141	-1828.66786963	-1860.45256954	-1806.12516554	-2133	1103.0
1127.55465052	1181.88205452	1236.20945852	1127.03658891	644.227918433	-26	1104.0
8445.64104153	8462.7611312	8479.88122088	8321.81718179	7839.1850978	2133	1107.0
-10018.2020097	-10500.8340937	-10983.4661777	-11385.9679098	-11111.7547035	-1040	1108.0
6735.77801894	6797.42864773	6859.07927652	6765.05472111	6558.09358309	2133	1110.0
10075.7293468	10163.5528342	10251.3763216	10165.1891731	9763.19489004	2133	1113.0
-8326.54784583	-8728.54212885	-9130.53641187	-9102.74207819	-8927.9254708	-1040	1114.0
-11805.6942182	-12076.0793958	-12346.4645735	-12613.9099948	-12454.5797776	-1040	1122.0
5774.63015691	5803.37780531	5832.12545372	5620.92182056	5360.72356486	2133	1127.0
-7909.38747596	-8169.58573166	-8429.78398737	-8331.3538036	-8134.08824778	-1040	1128.0
5679.99028347	5735.608948	5791.22761253	5733.58716119	5525.04212613	2133	1131.0
-4068.02948684	-4276.57452191	-4485.11955697	-4412.56780049	-4316.84654754	-1040	1132.0
5039.29660202	5325.27533037	5611.25405872	4825.6863809	3557.97069995	2133	1143.0
-2780.60770483	-4048.32338578	-5316.03906674	-5478.14730638	-5349.51004998	-1040	1144.0
14077.3304863	14087.8649063	14098.3993263	14040.2329754	13275.693095	2133	1147.0
-18834.9818796	-19599.5217599	-20364.0616403	-20872.638567	-20605.0459767	-1040	1148.0
4548.65751149	4816.25010179	5083.84269209	5005.15563972	4702.29416865	2133	1149.0
-5292.13437664	-5594.99584771	-5897.85731878	-6009.07351364	-5896.51505201	-1040	1150.0
14926.8003502	15039.3588118	15151.9172734	15043.1220064	14736.7661805	2133	1151.0
-9771.69988523	-10078.0557111	-10384.4115369	-10451.8188365	-10341.6964723	-1040	1152.0
5310.3600823	5410.55555556	5510.75102881	5555.52011732	5496.80203637	2133	1154.0
-3630.16277381	-3832.22780038	-4034.29282695	-4208.07262557	-4098.80194346	-1040	1156.0
12401.0710561	12510.3417382	12619.6124203	12239.5979414	10559.7463797	2133	1157.0
2021.07142857	2122.125	2223.17857143	2108.50811193	1980.65069686	-26	1160.0
62.7894708188	-65.0679442509	-192.925359321	-250.065060783	-226.678507107	-2133	1161.0
1913.63636364	2014.35406699	2115.07177033	2021.41418764	1885.66423965	-26	1166.0
1547.65226986	1609.76518196	1671.87809406	1583.44377768	1454.68641576	-26	1169.0
538.811640004	467.76374887	396.715857736	398.693890918	419.748798277	-26	1174.0
3611.39568345	3711.71223022	3812.02877698	3704.45133836	3464.80380254	-26	1176.0
-1088.49937806	-1328.14691388	-1567.7944497	-1498.34670537	-1413.73720039	-2133	1177.0
1970.64299902	2055.25250401	2139.86200899	2035.42710537	1893.06612357	-26	1178.0
-1381.23645789	-1523.5974397	-1665.9584215	-1662.23654007	-1601.34672913	-2133	1179.0
-1805.78041606	-2007.15476486	-2208.52911365	-2255.06513859	-2134.67114342	-2133	1182.0
-21.0752880454	-68.1106804212	-115.146072797	-151.551322404	-128.964023012	-2133	1185.0
345.369264204	367.956563595	390.543862987	392.308684617	338.18564586	-2106	1186.0
-473.6599355	-527.782974257	-581.906013015	-595.350081922	-564.888039323	-2133	1187.0
1109.46	1210.32	1311.18	1365.21384615	1303.44003497	-26	1190.0
500.38048951	438.606678322	376.832867133	341.460057859	375.955409836	-26	1191.0
1307.32991321	1341.82526519	1376.32061716	1302.08418833	1083.42424455	-26	1192.0
3756.90838245	3765.24506743	3773.5817524	3661.6610144	3500.60361982	2106	1197.0
-534.3163785	-701.691433491	-869.066488482	-887.904776403	-848.861440864	-2133	1201.0
1511.31532753	1570.24904973	1629.18277192	1614.40470237	1446.09433729	-26	1203.0
-1078.56113885	-1246.87150393	-1415.18186901	-1389.44205377	-1309.36773729	-2133	1204.0
587.372044015	615.398378768	643.424713521	578.591368016	479.361806194	-26	1208.0
-711.392935667	-810.622497489	-909.85205931	-891.043520283	-820.721921701	-2133	1209.0
2010.15974441	2110.66773163	2211.17571885	2265.25966349	2176.7365925	-26	1212.0
183.746877058	185.358073799	186.969270541	145.941130839	104.083942824	-2106	1214.0
2395.72271972	2404.63136485	2413.54000999	2384.18590779	2157.79407805	-26	1230.0
-3275.60983577	-3502.00166551	-3728.39349526	-3736.96421329	-3610.57995558	-1040	1231.0
939.253321871	1065.63757958	1192.02183729	1242.01599257	1070.47770226	-26	1232.0
-1674.13494268	-1845.67323298	-2017.21152329	-2014.3262323	-1910.73464482	-2133	1233.0
1197.01297968	1300.60456717	1404.19615465	1397.10397042	1255.63334508	-26	1234.0
-1007.89666035	-1149.36728569	-1290.83791103	-1382.59804353	-1299.44703771	-2133	1235.0
-624.111955632	-641.197125691	-658.28229575	-652.537144296	-638.083118567	-2133	1238.0
-10320.5652794	-10812.4761144	-11304.3869495	-11627.3330074	-11434.0243644	-1040	1243.0
-3137.30497484	-3275.05875084	-3412.81252684	-3417.83001944	-3284.96185104	-1040	1245.0
-889.325868623	-950.738009105	-1012.15014959	-1027.74889132	-1000.01988032	-2133	1249.0
-2210.72398946	-2365.80090551	-2520.87782155	-2606.60245969	-2462.5550295	-2133	1254.0
37254.1168849	37318.2612191	37382.4055533	37108.0958438	36623.3154985	2133	1261.0
-30276.3721541	-30761.1524994	-31245.9328447	-31314.3047514	-31206.6025261	-1040	1262.0
13278.0	13378.5909091	13479.1818182	13505.5110152	13427.2758429	2133	1264.0
11121.512786	11221.7065949	11321.9004038	11348.6186727	10991.3937579	2133	1274.0
-5440.95232106	-5798.17723582	-6155.40215058	-6375.87814091	-6257.10656573	-1040	1275.0
7601.32582811	7634.42942302	7667.53301792	7678.76390532	7636.73059664	2133	1277.0
-12501.20403	-13096.0260175	-13690.848005	-13452.2442983	-13133.5462189	-1040	1279.0
1845.26351224	2163.96159163	2482.65967101	2644.19342089	2443.07892937	-26	1280.0
-1981.43988413	-2182.55437565	-2383.66886717	-2535.99796043	-2437.83101906	-2133	1281.0
10149.3777778	10249.8666667	10350.3555556	10427.5903321	9706.55503391	2133	1284.0
-6156.22152669	-6877.2568249	-7598.29212311	-7767.36387012	-7557.06365395	-1040	1285.0
-1591.9965725	-1737.1434049	-1882.29023729	-1889.17173489	-1819.53469786	-2133	1287.0
3168.9370624	3251.55944723	3334.18183205	3301.3422619	1981.9308402	-26	1293.0
-3295.71484663	-4615.12626833	-5934.53769004	-6467.16777735	-6318.17325337	-1040	1294.0
-13083.440851	-13748.3532092	-14413.2655674	-15047.4674192	-14700.3929334	-1040	1297.0
-2051.59814436	-2222.7111554	-2393.82416644	-2378.82204627	-2275.24559882	-2133	1299.0
314.165587483	417.742034935	521.318482387	494.131714659	74.6718237225	-26	1300.0
-1183.70784909	-1603.16774003	-2022.62763096	-2205.13177868	-2063.32439826	-2133	1301.0
2758.12653601	2899.93391643	3041.74129684	3075.51784732	2960.06394665	-26	1302.0
-272.645271837	-388.099172498	-503.553073158	-565.438209601	-487.661634379	-2133	1303.0
8378.86794089	8456.64451611	8534.42109133	5651.6741988	1480.93989111	2133	1304.0
-2689.79441658	-6860.52872427	-11031.263032	-10903.1289922	-10477.746938	-1040	1305.0
8822.91526112	8844.86588583	8866.81651053	8347.97529508	7798.31512266	2133	1309.0
-9790.81039483	-10340.4705673	-10890.1307397	-10798.2489717	-10642.3539908	-1040	1310.0
9156.30857753	9312.20355838	9468.09853924	9502.49615135	9415.53980364	2133	1311.0
-4679.21128693	-4777.21684316	-4875.22239939	-4916.40116313	-4841.59583826	-1040	1315.0
-577.692320335	-502.886995459	-428.081670583	-454.518017521	-532.022820666	-2133	1316.0
9945.06783611	9968.927495	9992.78715389	10004.4357861	9577.85454792	2133	1319.0
-12177.7885987	-12604.3698369	-13030.951075	-13125.720475	-12717.3888749	-1040	1320.0
1949.97487436	2058.34462917	2166.71438398	2121.61139649	2002.41052204	-26	1322.0
12710.046851	12810.1259601	12910.2050691	12655.4020929	12124.4640305	2133	1327.0
-7520.24427888	-8051.1823413	-8582.12040371	-8758.1433766	-8586.10819337	-1040	1328.0
23472.6817204	23542.7370968	23612.7924731	22783.8005526	21615.197905	2133	1330.0
27058.236476	27226.9692534	27395.7020308	26210.4593343	24840.0649684	2133	1332.0
-24494.1322015	-25864.5265673	-27234.9209332	-26800.9595346	-25599.1707925	-1040	1333.0
1796.11793447	1889.60399412	1983.09005376	1906.78395462	1800.79809734	-26	1335.0
-17.4615710578	23.2993412867	64.0602536311	72.1566442857	16.5844608748	-2133	1337.0
-872.570473699	-928.14265711	-983.714840521	-1038.72011333	-984.529812341	-2133	1338.0
2114.75672952	2141.32568765	2167.89464579	2181.23542241	1967.67179003	-26	1343.0
-2090.03722525	-2303.60085764	-2517.16449002	-2630.87678596	-2514.99143514	-2133	1344.0
10259.2315068	10316.7604274	10374.2893479	9456.54810151	7990.2074247	2133	1350.0
-11072.2213739	-12538.5620507	-14004.9027275	-13947.4210348	-13433.3001232	-1040	1351.0
2410.17293637	2421.61346839	2433.05400041	2405.00717867	2114.17502114	-26	1354.0
-3993.30028698	-4284.13244451	-4574.96460203	-4576.70340834	-4415.01075726	-1040	1355.0
9587.46338717	9656.00619144	9724.54899572	9594.32925576	9194.57026472	2133	1358.0
-7995.06635025	-8394.82534129	-8794.58433234	-8987.65479614	-8868.87560588	-1040	1359.0
18212.779773	18331.5589633	18450.3381536	17661.2561227	16305.2139493	2133	1360.0
-17595.8403844	-18951.8825578	-20307.9247311	-19771.7883876	-19194.1923823	-1040	1361.0
10874.1602205	10943.9580683	11013.755916	10866.5598128	10161.7901173	2133	1363.0
-9571.7613574	-10276.5310529	-10981.3007485	-11455.3921472	-11187.0688821	-1040	1364.0
-2080.65458413	-2247.84654017	-2415.03849621	-2361.77627746	-2264.24048104	-2133	1366.0
2023.54416567	2076.82328547	2130.10240527	2069.37186079	1922.7158375	-26	1368.0
-1450.37269817	-1597.02872146	-1743.68474475	-1705.41646835	-1632.19172688	-2133	1369.0
17211.0688304	17311.1331841	17411.1975378	16726.6377918	14876.6471283	2133	1371.0
-11023.2221607	-12873.2128242	-14723.2034877	-15517.3401309	-15185.3235985	-1040	1372.0
52041.7968022	52126.7734165	52211.7500309	51383.0256019	50469.0755167	2133	1375.0
21919.8047431	22037.272789	22154.7408349	21495.9267051	20821.890228	2133	1378.0
-17598.1889706	-18272.2254477	-18946.2619249	-19125.6855584	-18725.3139932	-1040	1379.0
7321.53877017	7418.80164557	7516.06452097	7437.84901974	7189.10677957	2133	1382.0
-4253.03626833	-4501.7785085	-4750.52074867	-4840.00208635	-4742.04489164	-1040	1383.0
-3255.08461611	-3481.10888371	-3707.13315132	-3680.42972041	-3498.89373612	-1040	1385.0
285.577526151	294.24677134	302.916016529	288.404355242	266.55682364	-2106	1387.0
11524.6563011	11624.8707038	11725.0851064	11576.9907287	11257.5706942	2133	1390.0
-5352.27110186	-5671.6911364	-5991.11117094	-6086.80853807	-5969.23856852	-1040	1391.0
6844.5219714	6965.18026444	7085.83855747	7156.88210745	7042.74943272	2133	1394.0
-3274.17381342	-4570.65542213	-5867.13703084	-6338.020357	-5721.81908872	-1040	1396.0
1708.52303523	1809.02439024	1909.52574526	1925.83714654	1603.85075678	-26	1400.0
-328.067581837	-650.053971606	-972.040361375	-960.860693767	-853.793250226	-2133	1401.0
4588.19306989	4655.59662289	4723.00017589	4225.18276803	3551.43578947	2133	1403.0
-3186.0339961	-3859.78097466	-4533.52795322	-4738.95672642	-4610.39481018	-1040	1404.0
10431.3493897	10559.9113059	10688.4732221	10144.7279572	9442.48308199	2133	1405.0
-7411.39392389	-8113.63879914	-8815.88367438	-9135.26771738	-8717.85373578	-1040	1406.0
2807.8677686	2908.14876033	3008.42975207	2549.12155492	1962.63656931	-26	1410.0
-969.7883587	-1556.2733443	-2142.75832991	-1911.67768595	-1680.26001271	-2133	1411.0
5334.53457389	5418.78110111	5503.02762834	5386.40162161	5140.60247152	2133	1413.0
-2479.17118127	-2724.97033136	-2970.76948145	-2934.79617717	-2843.67899287	-2106	1414.0
-1890.15418806	-2018.79346488	-2147.43274169	-2110.58389467	-2036.6166843	-2133	1416.0
2017.25984625	2051.97825604	2086.69666583	2044.80424577	1985.91719695	-26	1418.0
-353.830965991	-506.174820365	-658.51867474	-675.315413948	-669.861844465	-2133	1421.0
3757.85761036	3833.32355066	3908.78949096	3779.68301643	3404.46860975	-26	1423.0
-2974.17630391	-3349.3907106	-3724.60511728	-3817.82166468	-3638.53484812	-1040	1424.0
255.844023315	276.39723766	296.950452004	295.475460775	262.786883611	-2106	1427.0
794.077826974	723.725320784	653.372814594	641.142196409	698.652727091	-26	1431.0
2046.83578216	2008.16659195	1969.49740174	1973.36731777	1991.08660686	-26	1433.0
5162.83935449	5180.55864359	5198.27793268	4873.28425585	4338.80679521	2133	1434.0
5765.01030573	5832.9215872	5900.83286868	5833.94576999	5516.3165845	2133	1439.0
-4012.55898016	-4330.18816565	-4647.81735114	-4603.75062427	-4469.86972219	-1040	1440.0
-134.966341005	-156.951069981	-178.935798957	-187.375202886	-186.312088802	-2133	1442.0
268.671899456	279.989993393	291.308087329	284.484760575	217.618493743	-2106	1444.0
13460.3282133	13536.2878524	13612.2474914	12581.5251407	11425.0159172	2133	1448.0
-10548.6593296	-11705.1685531	-12861.6777766	-13632.1454981	-13011.2516014	-1040	1449.0
29097.0846796	29181.8130684	29266.5414572	28343.0675758	27055.9706041	2133	1453.0
-24427.9082627	-25715.0052344	-27002.1022061	-26989.5416878	-26545.333916	-1040	1454.0
-2668.60369944	-2817.50562095	-2966.40754245	-3052.63945746	-2957.95445752	-2106	1456.0
1797.91561639	1810.15111103	1822.38660567	1807.548349	1693.44972216	-26	1463.0
4800.52748304	4803.35193295	4806.17638286	4808.97456988	4722.72529293	2133	1467.0
-1573.47192475	-1659.7212017	-1745.97047866	-1788.79586831	-1771.64083404	-2133	1468.0
-622.253537413	-605.098503135	-587.943468857	-680.08323453	-830.162299069	-2133	1469.0
-614.126678677	-675.670697313	-737.21471595	-789.693479174	-754.356448738	-2133	1472.0
11283.4508006	11362.1653601	11440.8799197	11115.0063333	10510.2283796	2133	1474.0
-4587.28902277	-5043.78112015	-5500.27321753	-5583.15263162	-5337.1092887	-1040	1478.0
3539.57083782	3590.91577726	3642.2607167	3626.2020709	3524.45112225	2106	1480.0
1026.5630193	1117.23252758	1207.90203586	1077.11455865	874.960035736	-26	1483.0
-1753.04876213	-1955.20328505	-2157.35780796	-2067.7062555	-1950.15359316	-2133	1484.0
6490.15433614	6501.51074042	6512.8671447	6160.9757744	5509.49677769	2133	1487.0
-10125.9991434	-10777.4781402	-11428.9571369	-11241.0975609	-10987.9128208	-1040	1488.0
-2632.75425797	-2897.96828638	-3163.18231478	-3288.85799915	-3157.83032176	-2106	1490.0
3605.4198895	3705.57044199	3805.72099448	3754.61393298	3597.44945997	2106	1492.0
-488.826838469	-645.991311486	-803.155784503	-827.663618598	-790.559914942	-2133	1493.0
322.551194725	359.654898381	396.758602036	368.709836116	315.821342107	-2106	1494.0
338.696188668	385.18013928	431.664089893	449.508168528	408.106534594	-26	1496.0
3591.99661623	3656.61200063	3721.22738504	3381.62485112	3037.13053675	-26	1507.0
-3163.76712194	-3508.26143631	-3852.75575069	-3772.34055928	-3665.39654059	-1040	1508.0
4809.01435407	4909.20215311	5009.38995215	4861.12977394	4090.30935941	2133	1510.0
-2076.25395688	-2847.07437142	-3617.89478596	-3840.69168328	-3723.52761829	-1040	1511.0
14788.3946505	14905.5587154	15022.7227804	14918.5144284	14795.2702012	2133	1512.0
-9837.86081203	-10075.6780219	-10313.4952317	-10460.5218723	-10241.9779402	-1040	1514.0
2566.26232685	2567.96002549	2569.65772414	2538.16446883	2381.32354588	-26	1516.0
-3735.47244923	-3892.31337218	-4049.15429513	-4170.61226751	-4075.14859392	-1040	1517.0
884.27286522	952.805751453	1021.33863769	930.735210333	776.110110076	-26	1519.0
-1543.26639378	-1697.89149404	-1852.5165943	-1824.2319039	-1724.38504535	-2133	1520.0
-2154.24669895	-2430.73278691	-2707.21887486	-2683.85535099	-2557.3164219	-2133	1523.0
21658.5957447	21758.8670213	21859.1382979	21088.2319022	20272.9336689	2133	1526.0
-14784.8903638	-15600.1885971	-16415.4868304	-16968.9218981	-16413.7641248	-1040	1527.0
6428.77310924	6529.22268908	6629.67226891	6584.05255464	6278.30478492	2133	1530.0
-2588.38053699	-2894.12830671	-3199.87607643	-3342.56725832	-3238.41031245	-1040	1531.0
12294.1358025	12394.9074074	12495.6790123	12593.4062619	12013.3682548	2133	1534.0
3302.26677316	3402.33546326	3502.40415335	3486.74970266	3293.4454786	-26	1536.0
273.851566922	213.158367988	152.465169053	153.711006386	193.997586989	-2106	1540.0
1966.60713349	2006.8937141	2047.1802947	2003.58848105	1932.96202389	-26	1541.0
-2086.16697989	-2581.72773562	-3077.28849136	-3421.89548347	-3190.11244914	-2106	1543.0
-337.947031077	-539.78704946	-741.627067844	-922.596715497	-833.260200768	-2133	1545.0
1846.8352411	1936.17175583	2025.50827056	2001.329747	1358.18557119	-26	1546.0
-1214.39113203	-1857.53530783	-2500.67948364	-2546.93586225	-2404.75612225	-2133	1547.0
3424.61321784	3566.79295784	3708.97269785	3657.06486291	3056.48524336	-26	1548.0
-1748.15171307	-2348.73133263	-2949.31095218	-3263.18598606	-2966.43683416	-2133	1549.0
28163.8405196	28260.5125162	28357.1845128	28406.6042229	27318.792433	2133	1551.0
-21632.7381153	-22720.5499053	-23808.3616952	-24497.1323166	-23715.3004323	-1040	1552.0
484.059127363	558.36062043	632.662113496	644.976746188	604.03047579	-26	1554.0
3639.60709653	3725.04000719	3810.47291784	3829.0792007	3685.28089653	2106	1557.0
-453.910402028	-551.303025046	-648.695648065	-675.699258372	-583.130700824	-2133	1561.0
5526.39409733	5618.96265488	5711.53121243	5425.8300732	4925.91104224	2133	1562.0
-3572.71248415	-4072.63151512	-4572.55054608	-4778.22409241	-4598.60690609	-1040	1563.0
-908.799305712	-1025.37135153	-1141.94339735	-1230.59196293	-1150.06985972	-2133	1565.0
2473.42478472	2553.94688793	2634.46899114	2603.36954107	2350.8928367	-26	1566.0
-2193.68784203	-2446.1645464	-2698.64125078	-2624.61771046	-2497.42196582	-2133	1567.0
1570.95315567	1650.40562457	1729.85809347	1716.61284847	1535.91286488	-26	1570.0
-993.886905288	-1174.58688887	-1355.28687246	-1360.53168822	-1274.77580432	-2133	1571.0
-469.235675055	-548.616006749	-627.996338443	-699.57497128	-663.772219904	-2133	1573.0
6695.8140278	6777.4113832	6859.00873861	6255.83216581	5644.23451807	2133	1575.0
-4752.92549344	-5364.52314117	-5976.12078891	-6276.40675261	-6005.38399649	-1040	1576.0
679.251129149	721.505526108	763.759923067	720.227338273	667.126164532	-26	1580.0
-341.796136554	-394.897310296	-447.998484037	-465.605927834	-458.103260404	-2133	1581.0
-256.25118182	-309.077790467	-361.904399115	-376.06893925	-368.346335222	-2133	1584.0
3352.59633842	3375.69748255	3398.79862667	3084.96475	2735.6415	-26	1589.0
1212.59932988	1356.20922695	1499.81912402	1574.05122518	1458.39513402	-26	1591.0
-854.726689094	-970.38278025	-1086.03887141	-1166.38149263	-1102.07615461	-2133	1592.0
157.684497309	202.411788159	247.139079009	225.621013515	174.354660337	-2106	1598.0
3730.56662246	3758.50602038	3786.44541831	3722.42619817	3476.59695128	-26	1603.0
-2423.30497402	-2669.1342209	-2914.96346779	-3105.26648097	-2989.91574037	-2106	1604.0
1914.27111111	2015.02222222	2115.77333333	2153.88477366	2060.59670782	-26	1612.0
635.235641286	655.795005076	676.354368866	627.795964271	505.017052375	-26	1614.0
-968.329890378	-1091.10880227	-1213.88771417	-1297.70998861	-1209.47145377	-2133	1615.0
4220.1509434	4320.63072776	4421.11051213	4436.30032694	4075.79135022	2133	1622.0
-1692.35227724	-2052.86125395	-2413.37023067	-2449.14954134	-2309.10970516	-2133	1623.0
4.02734387685	-28.6588510376	-61.345045952	-81.2802951803	-54.6910501039	-2133	1626.0
503.683096501	530.272341578	556.861586654	515.56103196	417.23438583	-26	1627.0
-664.358721602	-762.685367732	-861.012013862	-923.593606232	-857.210225902	-2133	1628.0
2144.9552011	2197.47981791	2250.00443473	2285.7312062	2245.66524507	-26	1631.0
-2305.5531281	-2971.89275074	-3638.23237339	-3876.42170915	-3709.96266785	-1040	1633.0
3947.1532319	4113.6122732	4280.0713145	4253.95902965	4066.33530997	2133	1634.0
-766.370576612	-935.346326567	-1104.32207652	-1206.77844713	-1110.01567223	-2133	1638.0
-1716.58375388	-1815.67359701	-1914.76344015	-1876.21124881	-1825.18073182	-2133	1641.0
963.923459195	1034.77198815	1105.6205171	1013.7469123	887.420618294	-26	1643.0
-881.147497784	-1007.47379179	-1133.8000858	-1096.18617664	-1013.58767842	-2133	1644.0
-1342.70374879	-1530.1270744	-1717.5504	-1668.70134924	-1581.03037383	-2133	1646.0
646.457542533	654.148824889	661.840107246	666.209643269	625.822286472	-26	1649.0
14885.2843693	14973.65618	15062.0279908	14369.8201636	13589.4084924	2133	1651.0
7620.77832512	7721.05172414	7821.32512315	7531.09543804	6951.54112451	2133	1653.0
-4059.99083255	-4639.54514608	-5219.09945961	-5440.68714061	-5202.35058102	-1040	1654.0
1405.95198689	1409.08990271	1412.22781852	1405.83249386	1327.17741644	-26	1657.0
1172.4536448	1277.80943797	1383.16523113	1327.16231599	1204.393565	-26	1660.0
-759.906450891	-882.675201884	-1005.44395288	-1077.37627604	-1032.43013132	-2133	1661.0
-3174.49231465	-3607.43565401	-4040.37899337	-4105.81472557	-3960.85372602	-1040	1666.0
2005.31926126	2019.75863008	2034.19799889	1850.73507591	1596.53804348	-26	1668.0
-2979.00854037	-3233.20557281	-3487.40260524	-3467.56725146	-3329.54378009	-1040	1669.0
1017.39975234	1030.78216819	1044.16458404	1052.93101343	953.382783883	-26	1674.0
-1336.22649573	-1435.77472527	-1535.32295482	-1548.31528125	-1496.35467538	-2133	1675.0
1626.57077069	1630.2848593	1633.99894792	1467.35979474	1237.86396198	-26	1682.0
-1057.09436562	-1286.59019837	-1516.08603113	-1666.0436752	-1561.11188769	-2133	1683.0
2907.57657658	3007.83783784	3108.0990991	3047.41705947	2820.7686665	-26	1685.0
-578.957228126	-805.605621101	-1032.25401408	-1207.74731981	-1120.20974927	-2133	1686.0
-2825.85503015	-3236.80039614	-3647.74576213	-3706.89205827	-3538.8412917	-1040	1688.0
-877.72652735	-1014.09833688	-1150.47014641	-1179.63735904	-1087.01109585	-2133	1690.0
4377.93843246	4470.56469565	4563.19095884	3651.89371699	2579.48716605	2160	1691.0
-2782.54558869	-3854.95213964	-4927.35869059	-5154.23351442	-4831.13026393	-1040	1692.0
-370.665035725	-534.367474371	-698.069913016	-813.082362296	-717.764298241	-2133	1694.0
5287.27373725	5382.5918013	5477.90986536	5202.71329897	4711.64664713	2133	1695.0
12304.449804	12404.4859813	12504.5221586	10048.2222823	7159.34938262	2133	1699.0
-4396.14221595	-7285.01511559	-10173.8880152	-11339.566876	-10625.7263784	-1040	1700.0
165531.298577	165580.683627	165630.068678	164907.639746	163939.340463	2133	1703.0
181356.317184	181452.083084	181547.848984	181224.141391	165957.3731	2133	1706.0
-139377.992737	-154644.761029	-169911.52932	-182383.580869	-176180.845706	-1040	1707.0
6975.26717831	7040.25220467	7105.23723102	6343.62870045	4741.56093596	2133	1709.0
20155.9952982	20258.4648163	20360.9343343	18162.3102012	13393.4327961	2133	1718.0
-15219.8316345	-19988.7090396	-24757.5864447	-24940.350462	-24688.9606811	-1040	1719.0
-10387.8682881	-11600.8733326	-12813.878377	-13538.2931671	-13250.4440075	-1040	1721.0
2869.1089297	3156.95808929	3444.80724888	3557.1116386	3332.77496798	-26	1722.0
-2499.97846815	-2724.31513877	-2948.65180939	-2963.021779	-2862.48277231	-2106	1723.0
7080.98051978	7151.61978564	7222.25905149	7195.10536915	7111.8853709	2133	1728.0
-3445.98791668	-3624.58494686	-3803.18197704	-3730.71500336	-3643.64341625	-1040	1733.0
4802.30053302	4889.37212013	4976.44370724	4871.65320271	4614.38519442	2133	1734.0
20605.1411542	20660.1571211	20715.1730881	20768.1883708	20240.9949786	2133	1738.0
-14186.7129985	-52168.4926258	-90150.2722532	-106691.646813	-102718.631812	-1040	1743.0
-371.792619042	-463.388715653	-554.984812264	-565.260858927	-529.706330967	-2133	1753.0
5585.67247825	5621.22700621	5656.78153417	5655.79169765	5565.63900632	2133	1754.0
8627.39754351	8680.17958348	8732.96162345	8519.26916694	8199.40408551	2133	1758.0
-6194.52457888	-6514.38966031	-6834.25474174	-7104.64027073	-6880.99995451	-1040	1759.0
11860.7865624	11956.2696217	12051.752681	12024.8876461	11442.5831461	2133	1766.0
-14761.1193539	-15343.4238539	-15925.7283539	-15820.9553851	-15677.1901071	-1040	1767.0
20264.1293961	20407.8946741	20551.6599521	20339.209941	19765.9822183	2133	1768.0
11464.0179692	11599.5076356	11734.997302	10883.1115402	7248.79010777	2133	1771.0
-3654.17418966	-7288.49562214	-10922.8170546	-12181.3455469	-12000.4363822	-1040	1772.0
13326.8466759	13507.7558406	13688.6650053	13423.8902313	13086.5365696	2133	1773.0
-7154.68313536	-7492.03679711	-7829.39045886	-7885.01769917	-7773.52092952	-1040	1774.0
-7145.95409757	-7420.46021885	-7694.96634013	-7907.50958456	-7739.90235085	-1040	1776.0
13102.4985516	13173.8229273	13245.1473029	13295.1669692	12333.9661941	2133	1780.0
-11696.0531817	-12657.2539567	-13618.4547317	-13667.2462782	-13534.4503797	-1040	1781.0
30288.1961095	30420.992008	30553.7879064	29874.9254284	28542.9302155	2133	1782.0
3715.10204082	3815.51020408	3915.91836735	3767.19080458	3574.42801064	2106	1787.0
-5319.8884737	-5556.70260524	-5793.51673678	-5784.67011618	-5658.63498307	-1040	1791.0
3986.15275988	4025.14197788	4064.13119588	4078.75576761	4032.32024201	2133	1794.0
5645.54353625	5706.41127416	5767.27901207	5819.13867461	5401.87152745	2133	1797.0
-7116.14288732	-7533.41003448	-7950.67718164	-8070.36624596	-7938.07519733	-1040	1798.0
9616.6507177	9716.82416268	9816.99760766	9861.7756098	9711.66087784	2133	1800.0
-4937.9908958	-5065.99029771	-5193.98969963	-5298.4740199	-5175.4190475	-1040	1802.0
-5553.73542503	-5831.47762737	-6109.21982971	-6187.38371206	-6077.39134362	-1040	1804.0
1072.11260465	1182.10497309	1292.09734152	1178.04821499	1057.92646071	-26	1805.0
1817.16488265	1907.68660494	1998.20832723	1954.91398848	1431.48589257	-26	1807.0
-3279.36697066	-3802.79506657	-4326.22316249	-4381.35359766	-4161.20754775	-1040	1808.0
2939.43934294	2951.87941081	2964.31947869	2969.24363429	2858.58597035	-26	1813.0
-1125.08993142	-1235.74759536	-1346.4052593	-1335.66829088	-1303.51467522	-2133	1814.0
-242.445358232	-210.291742566	-178.138126899	-153.434974296	-180.940179697	-2133	1815.0
6590.5937132	6670.88275563	6751.17179805	6577.24899732	6314.27976595	2133	1817.0
-4467.45871989	-4730.42795125	-4993.39718261	-5028.45757073	-4915.35626231	-1040	1818.0
-3311.36062925	-3781.59205156	-4251.82347387	-4500.88794592	-4359.55420942	-1040	1821.0
3237.28476761	3245.01217699	3252.73958637	3234.91125896	3185.67879453	-26	1823.0
4510.29001833	4552.26744214	4594.24486595	4633.74523258	4207.95266611	2133	1825.0
-8140.0317615	-8565.82432797	-8991.61689444	-9062.57250617	-8894.49196313	-1040	1826.0
-7446.77618239	-7788.474858	-8130.17353361	-8329.11714973	-8128.05388384	-1040	1829.0
162.308173419	51.3977036111	-59.5127661972	-70.577260199	4.86974275214	-2133	1833.0
5663.39496409	5738.84196704	5814.28896999	5846.32720434	5799.27776777	2133	1834.0
365.298728104	417.238916502	469.1791049	508.237117105	466.192884521	-26	1839.0
4334.63084341	4405.82011442	4477.00938544	4432.03658664	4199.18535904	2133	1841.0
-1505.82649766	-1604.46735428	-1703.1082109	-1693.45677926	-1619.10645547	-2133	1844.0
-1183.12638011	-1266.46519087	-1349.80400163	-1393.35258576	-1376.63742015	-2133	1846.0
4806.07594937	4906.20253165	5006.32911392	5008.99012944	4848.57171913	2133	1848.0
-766.072641853	-926.491052166	-1086.90946248	-1143.87873221	-1081.02764673	-2133	1849.0
3255.6972509	3318.54833637	3381.39942184	3346.29192095	3155.25951424	-26	1850.0
12295.5124053	12353.1110982	12410.7097911	12005.916394	8857.97483104	2133	1853.0
-10029.6745468	-13177.6161097	-16325.5576727	-16419.6965577	-15303.6347344	-1040	1854.0
-2449.02993392	-3042.54756787	-3636.06520182	-3832.12579807	-3624.85760212	-1040	1859.0
-156.054045881	-265.862948402	-375.671850924	-417.488988915	-342.86206927	-2133	1861.0
5776.54534162	5851.17226127	5925.79918091	5239.90151281	3245.12716343	2133	1862.0
-2753.91243343	-3001.78241125	-3249.65238907	-3427.27772877	-3349.83442351	-1040	1865.0
2548.37790388	2636.05792931	2723.73795475	2573.73373039	2327.53302134	-26	1868.0
-1857.8790325	-2104.07974154	-2350.28045059	-2522.96739184	-2417.5998401	-2133	1869.0
5063.49633302	5168.86388475	5274.23143649	5257.93722692	5069.27956267	2133	1870.0
-3186.06819735	-3667.54341952	-4149.0186417	-4439.81043562	-4327.02680708	-1040	1873.0
30314.2155777	30348.2771943	30382.3388108	30257.7088207	29772.0521166	2133	1875.0
-32877.6627196	-33363.3194237	-33848.9761279	-33665.5925559	-33442.787343	-1040	1876.0
701.619288965	755.389907214	809.160525464	818.526687551	786.813693479	-26	1881.0
3106.23130899	3182.48641504	3258.74152109	3262.62575695	2970.8882252	-26	1884.0
-2863.86240974	-3155.59994149	-3447.33747324	-3624.20185297	-3469.54834102	-1040	1885.0
29313.65288	29406.6375265	29499.6221729	29462.5763772	29284.5075194	2133	1887.0
-9356.4346204	-9534.50347819	-9712.57233598	-9771.03209981	-9761.68076219	-1040	1888.0
3780.71862819	3891.47117749	4002.22372679	3955.14158265	3593.14250538	2106	1892.0
-3646.83904016	-4008.83811743	-4370.83719471	-4629.22805463	-4430.06359054	-1040	1893.0
4110.19814112	4153.46066508	4196.72318903	4153.29345851	3946.28255603	2133	1899.0
-2057.03361599	-2264.04451847	-2471.05542096	-2564.52110061	-2470.44059755	-2133	1900.0
8066.57574528	8160.65624834	8254.7367514	7630.22650553	6971.60776876	2133	1901.0
-7518.00444013	-8176.6231769	-8835.24191367	-8763.34966702	-8546.96812743	-1040	1902.0
2272.10885208	2488.49039167	2704.87193126	2744.61880813	2517.88217651	-26	1903.0
-2243.58708759	-2470.32371921	-2697.06035083	-2907.6449646	-2795.18922119	-2133	1904.0
3249.8964695	3256.87641529	3263.85636108	3223.3514377	2834.01536004	-26	1907.0
-5342.04227083	-5731.37834849	-6120.71442615	-6446.52642558	-6298.79529638	-1040	1908.0
5519.69503978	5667.42616898	5815.15729819	5543.6531935	5228.80442904	2133	1909.0
-4216.65850475	-4531.50726921	-4846.35603367	-4790.43205858	-4629.19984978	-1040	1910.0
304.009777359	320.420897632	336.832017906	311.102127953	278.957854142	-2106	1914.0
2579.81906017	2650.72288098	2721.6267018	2620.4953271	2097.26168224	-26	1917.0
-2088.60747664	-2611.8411215	-3135.07476636	-3270.34042407	-3071.95361285	-2133	1918.0
1130.5205804	1132.65593039	1134.79128038	1133.39781819	1127.40128596	-26	1920.0
-1888.07712357	-1991.84207712	-2095.60703068	-2144.43679671	-2047.28710376	-2133	1923.0
3924.7010071	3970.6601881	4016.61936911	3968.13372205	3888.56401496	2106	1933.0
-2355.85143393	-3414.33354464	-4472.81565535	-5200.53832633	-4908.82388416	-1040	1935.0
1217.17940134	1508.89384351	1800.60828567	1919.20809215	-1084.83784927	-26	1936.0
150.456959592	53.0575385808	-44.3418824302	-38.1969222128	-16.5851601166	-2133	1939.0
3598.46863444	3690.41052947	3782.35242449	3824.42076862	3710.68386829	2106	1946.0
-42.6338427876	-156.370743123	-270.107643459	-351.965351126	-313.640606223	-2133	1947.0
1602.5966389	1640.9213838	1679.2461287	1658.52793123	816.682720637	-26	1948.0
-2550.69812174	-3392.54333233	-4234.38854292	-4271.48901099	-3453.81807082	-1040	1949.0
3885.92912693	3979.02946209	4072.12979726	2231.9891749	-663.205116849	-2106	1951.0
2231.9891749	-663.205116849	-3558.39940859	-3765.17077516	-2946.13997379	-2106	1952.0
10044.4783685	846.818613232	-10084.3495483	-6586.56160266	-485.707306622	-2106	1956.0
2306.04166667	2406.30434783	2506.56702899	2404.59027408	1801.5136572	-26	1961.0
-610.792810313	-1213.86942719	-1816.94604407	-1701.25529723	-1553.11048146	-2133	1962.0
1047.01993729	1071.35124157	1095.68254586	1067.31400625	963.59706545	-26	1968.0
3196.11951963	3273.21446966	3350.3094197	3260.58761683	2993.85297365	-26	1971.0
-1807.37060358	-2074.10524675	-2340.83988993	-2377.78534796	-2269.81168451	-2133	1972.0
753.450891934	861.424555378	969.398218823	813.987638786	199.654924563	-26	1973.0
-1029.01050388	-1643.34321811	-2257.67593233	-2550.82828995	-2346.47004412	-2133	1974.0
923.261889216	1127.62013505	1331.97838088	1127.57059362	871.267852252	-26	1975.0
-410.245854601	-666.548595971	-922.851337342	-940.506166585	-805.105312347	-2133	1976.0
2400.94195142	2514.64761241	2628.35327339	2315.13916897	960.461319347	-26	1978.0
960.461319347	-394.216530271	-1748.89437989	-2483.41420718	-2230.4399684	-2133	1979.0
2036.83961935	2083.65783933	2130.47605931	2111.36169949	1786.01424766	-26	1982.0
-1792.80772236	-2118.15517419	-2443.50262601	-2404.40252738	-2293.58279908	-2133	1983.0
8234.29138949	8345.11111779	8455.93084609	7621.2640607	5852.66712469	2133	1984.0
-4758.91449138	-6527.51142739	-8296.1083634	-8879.73674615	-8754.66627703	-1040	1985.0
30642.5314936	30767.6019628	30892.6724319	30761.5192752	28851.0049992	2133	1986.0
-24643.3947271	-26553.9090031	-28464.423279	-27905.307419	-26713.6143652	-1040	1987.0
590.861529204	639.340263134	687.818997065	663.851052482	600.113240992	-26	1989.0
3538.06580656	3612.64394464	3687.22208272	3040.38237747	945.544365665	-26	1991.0
-1149.29364614	-3244.13165795	-5338.96966976	-5284.86198847	-4932.87190606	-1040	1992.0
707.984367798	669.834817538	631.685267277	595.793324915	616.46213626	-26	1994.0
1381.20815602	1401.87696737	1422.54577871	1394.28923726	1252.23953011	-26	1995.0
-1446.70490578	-1588.75461293	-1730.80432008	-1759.34502225	-1683.07324416	-2133	1996.0
3180.67612789	3194.18625775	3207.6963876	2684.48752713	1987.55520819	-26	1999.0
-2029.21699359	-2361.26588721	-2693.31478083	-2934.13231615	-2802.72391731	-2133	2003.0
3965.45075758	3973.27137446	3981.09199134	3668.0813931	3251.53801999	-2106	2007.0
-4246.2426959	-4662.78606901	-5079.32944212	-5041.16716205	-4861.86019038	-1040	2008.0
-1571.83171151	-1781.21596206	-1990.60021261	-1967.10644258	-1851.3837535	-2133	2010.0
1405.02104285	1439.24738479	1473.47372673	1478.82672509	1428.5895516	-26	2012.0
4796.35747223	4929.08184021	5061.8062082	4880.59954733	4396.32492394	2133	2017.0
-3352.06905022	-3836.34367361	-4320.61829699	-4581.30292801	-4388.38084317	-1040	2018.0
-653.344978635	-744.677081311	-836.009183986	-926.721407854	-852.167054003	-2133	2020.0
-2156.0240779	-2350.1845053	-2544.3449327	-2584.29716122	-2471.38595921	-2133	2023.0
-4807.47135256	-5304.69072832	-5801.91010408	-5798.54822387	-5555.28301098	-1040	2025.0
4245.60899964	4314.9661131	4384.32322656	4303.35909432	4182.04717226	2133	2028.0
585.938729687	683.5664992	781.194268714	801.533782438	688.523620791	-26	2031.0
-1119.63896557	-1232.64912722	-1345.65928887	-1333.71588411	-1241.08842041	-2133	2032.0
5613.34389329	5705.97135699	5798.59882069	5514.59901211	4852.54698009	2133	2033.0
-1131.17040552	-1276.1274742	-1421.08454289	-1503.27797977	-1409.07504157	-2133	2038.0
270.546351525	257.395860098	244.245368671	242.412280725	250.815268174	-2106	2040.0
460.889954396	469.292941845	477.695929294	478.791527356	431.317760087	-26	2041.0
3198.56789728	3208.93795025	3219.30800322	2944.57966879	2512.23326467	-26	2045.0
-3108.26998885	-3540.61639297	-3972.96279708	-3966.30398059	-3696.48291251	-1040	2046.0
4456.91290163	4538.01475776	4619.11661388	2559.13235294	-504.475490196	2160	2048.0
9464.95126387	9505.74099695	9546.53073003	7812.39634077	6011.93916403	2133	2051.0
-8391.71824992	-10192.1754267	-11992.6326034	-12336.0804062	-11965.1070924	-1040	2052.0
-1260.28390622	-1455.21329103	-1650.14267583	-1739.11287395	-1669.48463205	-2133	2054.0
520.711142122	550.510996805	580.310851488	549.865413145	468.229992525	-26	2056.0
6820.33492823	6920.63397129	7020.93301435	6955.61847822	6846.26900206	2133	2060.0
-4743.36937003	-5920.52679359	-7097.68421716	-7724.24690507	-6988.60317747	-1040	2065.0
-1103.45335663	-367.809629029	367.834098575	-615.84855903	-935.035317552	-2106	2066.0
2233.91906848	2255.02667289	2276.13427731	2214.98410223	1996.33845798	-26	2070.0
-1283.34620585	-1501.99185011	-1720.63749437	-1846.08588636	-1747.74057932	-2133	2071.0
4865.86414298	4942.10908344	5018.35402389	4899.72824656	4650.13450873	2133	2073.0
-2837.67762614	-3087.27136397	-3336.86510179	-3350.81493657	-3249.18659086	-1040	2074.0
141.333450432	103.098724293	64.8639981532	56.6836135441	88.6424376657	-2106	2077.0
-991.927863511	-1099.71963243	-1207.51140135	-1185.1008877	-1101.4311645	-2133	2079.0
3500.4036111	3584.0733343	3667.74305749	3612.35199876	3337.05291751	-26	2080.0
-2719.52687	-2994.82595125	-3270.1250325	-3276.65401613	-3146.34794233	-2106	2081.0
971.563591877	1003.28747038	1035.01134889	992.415954118	947.429952919	-26	2084.0
-267.192079473	-312.178080673	-357.164081872	-381.304493198	-364.39250172	-2133	2085.0
-731.700856516	-773.185672825	-814.670489134	-852.401705214	-821.638100086	-2133	2087.0
5854.77551463	5928.22648642	6001.67745822	5878.94764772	5716.67083943	2133	2089.0
6209.66779661	6309.82372881	6409.97966102	6503.84195117	6308.83606098	2133	2091.0
1847.14218722	1883.33631291	1919.53043861	1926.83277372	1873.83696682	-26	2096.0
177.971146277	124.975339385	71.9795324926	65.0342551909	102.372331401	-2106	2097.0
-3211.29102935	-4354.53435304	-5497.77767673	-5859.93404672	-5355.69056759	-1040	2100.0
-2254.57847444	-2660.96302104	-3067.34756765	-3365.17271469	-3238.30771523	-2106	2104.0
6657.16224262	6784.02724208	6910.89224154	6104.06485575	5019.22540513	2133	2105.0
2942.94020846	3161.10247861	3379.26474875	3350.12839691	3096.8003731	-26	2107.0
-1716.43207927	-1969.76010307	-2223.08812688	-2401.61812928	-2300.21383517	-2133	2108.0
4392.46957603	4493.87387014	4595.27816425	4452.06858971	4082.63501002	2133	2109.0
1870.11840492	1950.34080775	2030.56321057	1995.4339269	1900.34739865	-26	2115.0
-1599.81188563	-1894.00873836	-2188.2055911	-2134.81461485	-1910.98725598	-2133	2117.0
6803.0371932	6881.0571722	6959.07715121	5655.72806945	2977.16758991	2133	2121.0
-2379.95336916	-5058.5138487	-7737.07432823	-7898.59058523	-7308.48947021	-1040	2122.0
-157.122925789	-305.590489732	-454.058053675	-510.847916324	-441.62606755	-2133	2124.0
609.618371081	610.150172491	610.681973901	587.667666017	529.624629908	-26	2126.0
10438.7405765	10539.113082	10639.4855876	10365.3883688	9472.93579066	2133	2130.0
-6591.21061638	-7483.66319454	-8376.11577271	-8317.09880328	-8045.65570288	-1040	2131.0
911.966610182	1183.40971058	1454.85281097	1490.32146227	1329.8333281	-26	2132.0
-1237.9768186	-1398.46495277	-1558.95308694	-1681.10973625	-1589.90224289	-2133	2133.0
2919.20643093	2991.39938494	3063.59233895	3010.37514759	2849.13609254	-26	2139.0
-1504.31839384	-1665.55744889	-1826.79650395	-1959.294492	-1889.23565887	-2133	2140.0
2679.86255584	2750.04240452	2820.22225321	1679.44543666	187.465872892	-26	2149.0
-1304.51369088	-2796.49325465	-4288.47281842	-4249.41635138	-3992.93994347	-1040	2150.0
426.734158975	364.63188846	302.529617946	320.023181046	345.296732002	-2106	2152.0
1305.69166834	1330.9652193	1356.23877025	1185.28501177	990.263158371	-26	2153.0
-1740.04278928	-1935.06464268	-2130.08649609	-2318.55945772	-2202.70780495	-2133	2154.0
577.731861589	693.583514362	809.435167134	844.400370759	784.395614065	-26	2155.0
1618.77759525	1674.57075637	1730.36391749	1669.80501406	1529.81345117	-26	2157.0
-1270.01780656	-1410.00936945	-1550.00093234	-1567.63010951	-1479.20279445	-2133	2158.0
8909.23309258	9009.33683519	9109.44057781	9084.75151692	8833.40032853	2133	2160.0
-3231.45671461	-3482.80790301	-3734.15909141	-3934.1800622	-3841.57457357	-1040	2161.0
11623.5420273	11716.1475159	11808.7530045	11703.8340962	11453.6292426	2133	2162.0
-11682.8878564	-12051.0537791	-12419.2197017	-12334.562351	-12163.8729258	-1040	2165.0
2174.03879107	2344.72821627	2515.41764147	2413.78402595	1811.14236274	-26	2166.0
4261.14959642	4449.38627014	4637.62294386	4474.24932037	4081.19164058	2133	2168.0
-2993.8465957	-3386.9042755	-3779.96195529	-4079.97906595	-3950.75024445	-1040	2169.0
12332.6075742	12376.7947389	12420.9819035	12431.3821025	12233.5634782	2133	2171.0
4856.64769279	4993.57198607	5130.49627935	3380.06844323	690.229032655	2160	2174.0
-1999.61037792	-4689.4497885	-7379.28919908	-8182.45645288	-7982.50459519	-1040	2175.0
1226.26920166	1281.29890276	1336.32860386	1137.85726496	700.964529915	-26	2180.0
-172.820940171	-609.713675214	-1046.60641026	-1086.10117201	-954.677137194	-2133	2181.0
1826.40604381	1839.86493798	1853.32383215	1614.81989628	1313.78123527	-26	2183.0
-1696.60537482	-1997.64403583	-2298.68269684	-2288.38834734	-2170.49842008	-2133	2184.0
3841.88787039	3959.77779765	4077.66772492	4162.18037661	4068.03676908	-2106	2185.0
6271.74370277	6542.54187657	6813.34005038	6762.39482292	5888.85943192	2133	2189.0
-3720.02986907	-4593.56526007	-5467.10065106	-5582.71827903	-5440.24481426	-1040	2190.0
-5307.52496842	-6009.34873643	-6711.17250444	-6899.78720345	-6569.55890955	-1040	2193.0
14231.3677249	14331.5886243	14431.8095238	14263.4017024	13883.1298544	2133	2197.0
-7412.09363739	-7792.36548546	-8172.63733352	-8388.60665126	-8225.14799855	-1040	2198.0
-2667.55380627	-2504.09515355	-2340.63650084	-2285.05597172	-2416.36459481	-2106	2199.0
-2810.29046408	-2941.59908716	-3072.90771025	-3045.36771318	-2916.65206536	-2106	2200.0
7638.03105644	7766.74670427	7895.4623521	7602.74526169	7184.51513567	2133	2201.0
-4525.92839299	-4944.15851902	-5362.38864504	-5305.13975278	-5189.68863356	-1040	2202.0
11088.9191755	11204.3702947	11319.821414	10414.2770522	8574.02687949	2133	2203.0
2254.99173911	2622.35604042	2989.72034173	2802.54589572	2303.3383239	-26	2205.0
-2189.52982241	-2688.73739422	-3187.94496603	-3074.26866926	-2953.06725124	-2133	2206.0
7591.45611684	7712.65753487	7833.85895289	7922.36626028	7811.30001015	2133	2207.0
8408.35820896	8508.45771144	8608.55721393	8531.62072106	8184.85480809	2133	2209.0
-3951.95214581	-4298.71805878	-4645.48397175	-4719.221228	-4606.94673209	-1040	2210.0
3252.26798183	3364.54247774	3476.81697365	966.901688739	-4077.54929577	-2106	2211.0
12927.2786317	13079.3347196	13231.3908076	349.931130862	-13257.720863	2160	2213.0
-43.4584027727	-154.549948329	-265.641493885	-340.163956813	-255.311443122	-2133	2216.0
24606.4750686	24691.3275823	24776.180096	24641.4362992	24490.5215896	2133	2217.0
-293.387586218	-195.669704061	-97.951821904	-682.020615314	-2983.73388803	-2133	2221.0
4281.17299375	4378.89423059	4476.61546742	4548.3226139	3884.17558589	2133	2224.0
10501.6589725	10607.4910853	10713.3231982	10602.1410711	9671.3334621	2133	2227.0
-7083.20350015	-8014.01110916	-8944.81871817	-8735.00299913	-8502.46385696	-1040	2228.0
4107.89304813	4208.0855615	4308.27807487	3937.02098893	3229.3591313	2133	2231.0
-1724.27387212	-2431.93572976	-3139.59758739	-3171.42787904	-3049.15067786	-2133	2232.0
8567.18343376	8689.46063493	8811.73783611	7373.69446883	4918.23018597	2133	2233.0
-2448.16266262	-4903.62694549	-7359.09122835	-8941.65525569	-7898.04825326	-1040	2234.0
13974.8157169	14067.9713643	14161.1270118	14065.615602	13630.7064177	2133	2236.0
-8549.6619842	-8984.57116855	-9419.4803529	-9478.02277855	-9193.08635338	-1040	2237.0
3339.08366191	3456.45787883	3573.83209575	3435.89006888	3020.0938507	-26	2239.0
15743.3371901	15843.6132231	15943.8892562	14579.2578747	12934.2169768	2133	2243.0
-10096.3555927	-11741.3964905	-13386.4373884	-13968.8786002	-13681.2916304	-1040	2244.0
5301.08678916	5305.86665555	5310.64652194	5198.78260643	4812.68596392	2133	2246.0
-7542.4065962	-7928.5032387	-8314.5998812	-8132.69131348	-7898.75103197	-1040	2247.0
1130.30090666	1154.21593642	1178.13096617	1186.46852135	1088.08011507	-26	2249.0
2228.67179531	2305.7104303	2382.74906529	2307.8471651	2212.2100583	-26	2251.0
304.684210526	406.245614035	507.807017544	193.414473684	-363.965587045	-2106	2254.0
-7385.96739421	-7851.20275203	-8316.43810984	-8632.23234254	-8330.70210605	-1040	2260.0
-823.545490453	-905.299541027	-987.053591601	-970.663843421	-891.325083003	-2133	2264.0
814.042553191	915.79787234	1017.55319149	1067.31871075	1000.10276385	-26	2267.0
395.159241768	327.94329487	260.727347972	249.563095507	314.595411373	-2106	2268.0
2785.82341428	2850.85573015	2915.88804601	2291.23041284	1379.5253342	-26	2269.0
-1355.58990173	-2267.29498038	-3179.00005902	-3381.36037234	-3149.86702128	-2133	2270.0
-1226.77640287	-1386.0085599	-1545.24071693	-1506.90890152	-1407.16523574	-2133	2274.0
4922.82537793	4968.87620918	5014.92704043	4717.04346267	4376.58165232	2133	2277.0
-3454.03998584	-3794.50179619	-4134.96360655	-4055.17742042	-3922.53615913	-1040	2278.0
-1251.35598562	-1367.90871224	-1484.46143886	-1587.66117429	-1510.01682139	-2133	2280.0
1505.06345178	1605.40101523	1705.73857868	1660.45079919	1504.78486377	-26	2282.0
-51.874490442	-207.540425863	-363.206361284	-327.276663271	-271.226638927	-2133	2283.0
4643.38610999	4696.79788929	4750.20966859	4555.37102225	4110.707077	2133	2286.0
-4337.90788282	-4782.57182807	-5227.23577333	-5308.35146605	-5142.75881637	-1040	2287.0
-2218.87812097	-2612.94964983	-3007.0211787	-3268.39952192	-3100.76640274	-2133	2289.0
-738.019448278	-880.610815756	-1023.20218323	-1034.45772779	-948.090278525	-2133	2291.0
-1589.80224162	-1837.71088605	-2085.61953048	-2127.62053611	-2009.67989135	-2133	2293.0
3247.76881717	3291.80815002	3335.84748286	3160.39034158	2664.00490345	-26	2297.0
-2299.84947791	-2796.23491605	-3292.62035418	-3188.48916399	-3046.57907226	-2106	2298.0
3055.55487226	3197.46496399	3339.37505572	3256.56391443	2886.47054957	-26	2299.0
-1924.74319372	-2294.83655859	-2664.92992346	-3016.09691244	-2803.61037518	-2133	2300.0
503.067462774	573.984876397	644.902290021	621.819860037	537.056004938	-26	2302.0
-225.818690954	-310.582546053	-395.346401152	-457.823098634	-417.562905996	-2133	2303.0
1305.890625	1406.34375	1506.796875	1457.81159143	1320.92787634	-26	2306.0
88.9744405126	-47.9092745792	-184.792989671	-232.178744612	-224.384967672	-2133	2307.0
212.308943442	242.075414209	271.841884976	246.898523352	201.29976754	-2106	2309.0
4775.38728637	4860.75535599	4946.1234256	4791.2858411	4394.06573874	2133	2311.0
-2755.89610381	-3153.11620617	-3550.33630853	-3904.90753934	-3687.35276442	-1040	2312.0
-1360.27603645	-1724.08106566	-2087.88609488	-2234.89843012	-2110.91989791	-2133	2321.0
-174.425275868	-216.881296977	-259.337318087	-286.216485008	-272.595831037	-2133	2323.0
1503.7181573	1549.40427928	1595.09040126	1608.93552858	1269.42831914	-26	2325.0
-1446.6293564	-1786.13656585	-2125.64377529	-2424.11744655	-2230.90352965	-2133	2326.0
36.6376940321	55.470202597	74.3027111619	83.3685671973	66.383607923	-2106	2329.0
8243.78864695	8274.07203451	8304.35542206	8269.63224392	7098.666256	2133	2333.0
-8123.89158698	-9294.8575749	-10465.8235628	-10741.4335875	-9818.84275396	-1040	2334.0
350.054248972	412.21892848	474.383607989	517.900407959	470.166731422	-26	2336.0
-54.9037104822	-102.637387019	-150.371063556	-175.901313665	-142.759584232	-2133	2337.0
387.508086696	420.649816129	453.791545562	421.26260112	370.479731532	-26	2338.0
1567.30172456	1629.59870534	1691.89568612	1399.87414105	1076.23048308	-26	2340.0
-1189.27512271	-1512.91878068	-1836.56243865	-2095.7591194	-1913.21905298	-2133	2341.0
1711.44897959	1812.12244898	1912.79591837	1907.99225311	1732.63457916	-26	2346.0
2659.31457406	2731.36420879	2803.41384352	2734.88177438	2356.02793367	-26	2353.0
-1432.51047336	-1811.36431406	-2190.21815476	-2564.38367347	-2365.05020408	-2133	2354.0
-346.233036117	-447.144691946	-548.056347776	-569.605473656	-500.005213006	-2133	2358.0
3.85234457072	-137.367758571	-278.587861713	-269.746281614	-250.189102379	-2133	2361.0
529.565517241	570.403634669	611.241752097	542.981681407	412.984411285	-26	2364.0
-496.996479569	-626.993749691	-756.991019813	-732.690534855	-653.721826314	-2133	2365.0
3340.63960316	3405.32098904	3470.00237492	3452.98282291	3262.17247584	-26	2367.0
2491.68237928	2586.03278325	2680.38318721	2674.98524201	2526.36057569	-26	2370.0
3532.53118503	3593.97777001	3655.424355	3505.27473845	3064.15496949	-26	2373.0
-573.067406187	-650.722433622	-728.377461056	-707.480104552	-648.552083748	-2133	2376.0
-300.713601516	-356.332202271	-411.950803026	-431.673295057	-417.409746534	-2133	2378.0
547.64762438	492.353703407	437.059782435	417.153080063	469.168756672	-26	2383.0
2653.82717425	2705.84285086	2757.85852747	2394.63293954	1985.8609451	-26	2384.0
-2101.85899931	-2510.63099375	-2919.40298819	-2993.49665052	-2775.21632365	-2133	2385.0
3585.98710589	3664.92433651	3743.86156713	3495.61391548	3055.92279213	-26	2389.0
-2220.3706881	-2660.06181145	-3099.7529348	-3066.17481297	-2939.54221589	-2133	2390.0
-2882.76479275	-3503.7942995	-4124.82380624	-4516.32855421	-4353.53045075	-1040	2392.0
3135.18230855	3297.98041202	3460.77851548	3216.60020317	2678.85530368	-26	2393.0
-2160.8487917	-2698.59369119	-3236.33859068	-3601.89433687	-3427.83607965	-2106	2394.0
-694.944079856	-833.023390439	-971.102701022	-1036.27199702	-973.73430909	-2133	2396.0
464.632513414	527.170201349	589.707889284	541.433580139	389.060365854	-26	2397.0
-982.298562718	-1134.671777	-1287.04499129	-1332.27305716	-1227.21150945	-2133	2398.0
6835.90854022	6905.23279898	6974.55705774	6671.17371683	5875.82127761	2133	2401.0
-5259.11287144	-6054.46531066	-6849.81774988	-7003.42301459	-6459.70121556	-1040	2402.0
243.963802237	258.406709829	272.849617422	251.328315539	229.428606724	-2106	2406.0
616.526790451	683.475331565	750.423872679	680.105982347	578.038901602	-26	2409.0
-340.564825106	-442.631905852	-544.698986597	-513.820875861	-431.937149921	-2133	2410.0
2515.87698393	2597.76070987	2679.64443581	2621.44553857	2286.6473506	-26	2411.0
-1730.9309051	-2065.72909307	-2400.52728105	-2373.37398481	-2226.00575519	-2133	2412.0
-1344.14050009	-1547.09248507	-1750.04447005	-1741.63274294	-1666.02841367	-2133	2422.0
-233.002832849	-231.568547269	-230.134261689	-232.195269518	-247.470483005	-2133	2424.0
8587.85804264	8648.714701	8709.57135936	8442.00308979	7207.36968583	2133	2428.0
-7608.23116174	-8842.86456571	-10077.4979697	-10141.1411949	-9834.68597192	-1040	2429.0
546.671453929	599.40378246	652.136110992	553.553550132	400.998849987	-26	2436.0
-361.774650737	-514.329350882	-666.884051026	-666.490039176	-586.73355839	-2133	2437.0
-1346.74107691	-1610.66528545	-1874.58949399	-1968.69141297	-1795.40369514	-2133	2443.0
1606.4628821	1706.86681223	1807.27074236	1670.73675047	1493.46820311	-26	2449.0
-101.948723088	-279.217270444	-456.4858178	-468.425337149	-418.069472743	-2133	2450.0
819.918981437	842.466812575	865.014643714	839.72042057	768.972086738	-26	2452.0
-1018.26999966	-1139.34180842	-1260.41361718	-1278.85869033	-1191.05236952	-2133	2457.0
-1238.93895555	-1315.66967446	-1392.40039338	-1377.18799939	-1304.23285669	-2133	2460.0
86.0023771863	88.8042752949	91.6061734035	91.6513237306	75.5248571658	-2106	2463.0
3923.10658307	4023.69905956	4124.29153605	4047.37557844	3721.64755934	2133	2469.0
-1490.00074638	-1815.72876549	-2141.45678459	-2125.10922753	-2019.27195615	-2133	2470.0
-1699.68726964	-1908.47411452	-2117.26095939	-2158.13959529	-2062.20941055	-2133	2472.0
5674.97893809	5767.71262735	5860.44631661	5102.65999427	4211.70881591	2133	2474.0
-3806.85178937	-4697.80296773	-5588.7541461	-5709.34531345	-5279.63817396	-1040	2475.0
216.965058448	221.10743088	225.249803312	222.417807108	152.893123858	-2106	2478.0
2303.5211141	2311.39234571	2319.26357733	2005.24170189	826.264244826	-26	2482.0
-107.751992655	-237.786712849	-367.821433043	-319.404264156	-262.085018816	-2133	2485.0
1931.67621751	1995.77464449	2059.87307147	1889.8268192	1612.6062974	-26	2487.0
-882.378398749	-1159.59892054	-1436.81944234	-1633.73498481	-1513.69992989	-2133	2488.0
1730.72477064	1832.53211009	1934.33944954	1929.43603595	1615.7454012	-26	2491.0
-266.398407302	-580.089042053	-893.779676803	-963.937820138	-858.963844936	-2133	2492.0
-209.181166053	-294.926094638	-380.671023223	-392.192157466	-324.26890586	-2133	2494.0
287.040358588	354.963610193	422.886861798	399.46705588	311.542535446	-2106	2495.0
-128.080066722	-216.004587156	-303.92910759	-350.124598577	-296.134610963	-2133	2496.0
-67.3457419684	-119.243498215	-171.141254462	-190.765391807	-154.689648139	-2133	2501.0
169.992044875	206.067788543	242.143532211	248.29345295	225.113476236	-2106	2502.0
372.607130262	305.639992838	238.672855414	222.175404335	248.330660689	-2106	2508.0
640.659505996	666.81476235	692.970018704	709.252556988	685.025449639	-26	2509.0
-413.500338649	-457.50108573	-501.50183281	-499.418622415	-476.94208906	-2133	2511.0
-252.176755516	-229.700222161	-207.223688807	-209.968635347	-248.758821775	-2133	2512.0
36.9880355362	55.7808151907	74.5735948452	66.1273622713	23.7351262614	-2106	2515.0
